{
    "scriptPath": "kmart/scripts/OP_scripts/copy_from_s3_to_redshift.sh",
    "arguments":
    [
        {
            "argument": ""
        }
    ],

"abortRun":true,
"notify":"error",
"pagerdutyAlert":true,
"pagerdutyKey":"767b5bfe175f4c9d818a0a0582f737ef",
"helpLink":"",
"listMissingFiles":false,
"message":[
{
"type":"error",
"subject":"Error while processing {{feed_date}} the scripts",
"body":"Hey Team, \n\n Error while processing following scripts:\n copy_from_s3_to_redshift\n\n\n"
},
{
"type":"success",
"subject":"Success while processing {{feed_date}}",
"body":"Hey Team, \n\n Success in processing all following scripts.\n copy_from_s3_to_redshift"
}
]
}








