{
  "projectName":"kmart/script_lite-0.0.1.jar",
  "environment":"prod",
  "scriptName": [

          {
                    "filename":"kmart_price_explode.sql"
          }
  ], 
  "abortRun": true,
  "notify": "error",
  "pagerdutyAlert": true,
  "pagerdutyKey": "${{pagerduty_key}}",
  "helpLink":"",
  "message": [
    {
      "type": "error",
      "subject": "[Error] Executing SQL Script- Kmart Price Explode execution {{feed_date}}",
      "body": "Hey Team, \n\n Error while executing Kmart Price Explode \n"
    },
    {
      "type": "success",
      "subject": "[Success] Executing SQL Script- Kmart Price Explode execution {{feed_date}}",
      "body": "Hey Team, \n\n  Success in executing Kmart Price Explode."
    }
  ]
}
