{
  "azkabanUrl": "prod.azkaban.rboomerang.com",
  "azkabanPort": "8081",
  "azkabanUserName": "azkaban_ocd",
  "azkabanPassword": "Azkaban_0CD",
  "projectName": "kmart-dd",
  "flowName": "rScriptExecutor",
  "successMailList": [
    "kmart-alerts@boomerangcommerce.com"
  ],
  "failureMailList": [
    "kmart-alerts@boomerangcommerce.com"
  ],
  "parallel": "parallelOff",
  "responseSQS": "is-dd-service",
  "SQSRegion": "us-west-2",
  "waitTime": 1,
  "numberOfMessagesPool": 10,
  "timeOut": 60, 
  "abortRun": true,
  "notify": "error",
  "pagerdutyAlert": true,
  "pagerdutyKey": "${{CS_pagerdutyKey}}",
  "helpLink":"",
  "message": [
    {
      "type": "error",
      "subject": " Internal Error - TriggerAzkabanProjects Failed",
      "body": "Failed while processing the file"
    },
    {
      "type": "success",
      "subject": "TriggerAzkabanProjects Execution Successful",
      "body": " Success in processing the file"
    }
  ]
}
