{
	"endpoint": "redshift",
	"messageHeading": "Kmart",
	"recipientList": "${{recordcount_recipient}}",
	"list": 
	{
		"ReportTables": 
		{
			"tableNames": "base.data_dictionary",
			"dateColumns": "dd_date",
			"numOfDays": "1"
		},
		"countTables": 
		{
			"tableNames": "base.data_dictionary",
			"dateColumns": "dd_date",
			"numOfDays": "1" 
		}
	},
	"helpLink": "https://www.google.com",
	"abortRun": true,
	"notify": "error",
	"pagerdutyKey": "${{pagerduty_key}}",
	"pagerdutyAlert": true,
	"feed_date": "yyyyMMdd,0",
	"zeroCount" : true,
	"message": 
	[
	{
		"type": "error",
		"subject": "Internal Error - RecordCountReport failed",
		"body": "\n\n   Failed in processing all RecordCountReport."
	},
	{
		"type": "success",
		"subject": " RecordCountReport execution successful",
		"body": "\n\n   Success in processing all RecordCountReport."
	},
	{
		"type": "warn",
		"subject": " RecordCountReport execution completed with warnings",
		"body": "\n\n   Success in processing RecordCountReport with warning."
	}
	]
}