{
  "id": "base_performance_order_tab_gz",
  "destination" : "clients/qa-testing/${{ID}}",
  "hiveConfig": {
    "bucketSortKey": "sku",
    "bucketCount": 10
  },
  "columns": [
      {
      "name":"sku",
      "source":{
        "expr":"commerce_feed_tab_gz.sku",
        "type":"STRING"
      }
    },
    {
      "name":"transaction_date",
      "source":{
        "expr":"concat(commerce_feed_tab_gz.feed_date,' ','00:00:00')",
        "type":"TIMESTAMP"
      }
    },
    {
      "name":"gross_units",
      "source":{
        "expr":"commerce_feed_tab_gz.units",
        "type":"DECIMAL(10,2)"
        }
    },
    {
      "name":"gross_orders",
      "source":{
        "expr":"commerce_feed_tab_gz.orders",
        "type":"DECIMAL(10,2)"
      }
    },
    {
      "name":"gross_revenue",
      "source":{
        "expr":"commerce_feed_tab_gz.revenue",
        "type":"DECIMAL(10,2)"
      } 
    },
    {
      "name":"gross_cost",
      "source":{
        "expr":"NULL",
        "type":"DECIMAL(10,2)"
      }
    },
    {
      "name":"gross_subsidized_cost",
      "source":{
        "expr":"NULL",
        "type":"DECIMAL(10,2)"
      }
    },
    {
      "name":"gross_shipping_cost",
      "source":{
        "expr":"NULL",
        "type":"DECIMAL(10,2)"
      }
    },
    {
      "name":"gross_variable_cost",
      "source":{
        "expr":"NULL",
        "type":"DECIMAL(10,2)"
      }
    },
    {
      "name":"gross_shipping_charges",
      "source":{
        "expr":"NULL",
        "type":"DECIMAL(10,2)"
      }
    },
    {
      "name":"page_views",
      "source":{
        "expr":"NULL",
        "type":"DECIMAL(10,2)"
      }
    },
    {
      "name":"unique_visits",
      "source":{
        "expr":"NULL",
        "type":"DECIMAL(10,2)"
      }
    },
    {
      "name":"channel_id",
      "source":{
        "expr":"0",
        "type":"INT"
      }
    },
    {
      "name":"feed_date",
      "source":{
        "expr":"concat(commerce_feed_tab_gz.feed_date,' ','00:00:00')",
        "type":"TIMESTAMP"
      }
      
    },
    {
      "name":"creation_date",
      "source":{
        "expr":"from_unixtime(unix_timestamp())",
        "type":"TIMESTAMP"
      }
      
    },
    {
      "name":"title",
      "source":{
        "expr":"commerce_feed_tab_gz.title",
        "type":"STRING"
      }
      
    },{
      "name":"comp_name",
      "source":{
        "expr":"commerce_feed_tab_gz.comp_name",
        "type":"STRING"
      }
      
    }
 ],
  "validations": {
    "row": [],
    "table": []
  },
  "tableSourcesConfig": {
     "feedSource": [
      {

        "name": "commerce_feed_tab_gz",
        "column": ""
      }
    ],
    "whereClause": "sku is NOT NULL"
  },
    "targets": [
    {
      "endpoint": "redshift",
      "args": {
        "table": "public.performance_order_custom_tab_gz_vj",
        "target_pk_columns":"sku, transaction_date, channel_id, feed_date, creation_date",
        "tableTransferTemplate":"Insert into <conf.table> select * from <conf.tempTable>;  drop table if exists <conf.tempTable> ;"
      }
    }
  ]
}