{
  "id": "base_performance_order_mysql",
  "destination": "table/${{ID}}",
  "hiveConfig": {
    "bucketSortKey": "sku",
    "bucketCount": 10
  },
  "warningPercLimit": 80,
  "columns": [
      {
      "name":"sku",
      "source":{
        "expr":"custom_Commerce_mysql.sku",
        "type":"STRING"
      }
    },
    {
      "name":"revenue",
      "source":{
        "expr":"custom_Commerce_mysql.revenue",
        "type":"STRING"
      } 
    },
    {
      "name":"orders",
      "source":{
        "expr":"custom_Commerce_mysql.orders",
        "type":"STRING"
      }
    },
    {
      "name":"units",
      "source":{
        "expr":"custom_Commerce_mysql.units",
        "type":"STRING"
      }
    },
    {
      "name":"feed_date",
      "source":{
        "expr":"concat(custom_Commerce_mysql.feed_date,' ','00:00:00')",
        "type":"TIMESTAMP"
      }
      
     
    },
    {
      "name":"transaction_date",
      "source":{
        "expr":"concat(custom_Commerce_mysql.feed_date,' ','00:00:00')", 
        "type":"TIMESTAMP"
      }
    }
 ],
 
 "columnsReferencedByName":"true",

  "validations": {
    "row": [],
    "table": []
  },
  "tableSourcesConfig": {
   "feedSource": [
      {

        "name": "custom_Commerce_mysql",
        "column": ""
      }
    ],
    "whereClause": "sku is NOT NULL"
 },
    "targets": [
    {
      "endpoint": "redshift",
      "args": {
        "table": "public.performance_order_mysql_custom_vj",
        "target_pk_columns":"sku,feed_date",
        "tableTransferTemplate":"Insert into <conf.table> select * from <conf.tempTable>; "
      }
    }
  ]
}