{
  "id": "table_custom_omniture",
  "destination": "table/${{ID}}",
  "hiveConfig": {
    "bucketSortKey": "sku",
    "bucketCount": 10
  },
  "warningPercLimit": 80,
  "columns": [
    {
      "name": "sku",
      "source": {
        "expr": "Products",
        "type": "STRING"
      }
    },{
      "name": "page_views",
      "source": {
        "expr": "feed_custom_omniture.Page_Views",
        "type": "DECIMAL"
      }
    },
    {
      "name": "unique_visits",
      "source": {
        "expr": "feed_custom_omniture.Unique_Visitors",
        "type": "DECIMAL"
      }
    },
    {
      "name": "feed_date",
      "source": {
        "expr": "concat(substr('${hiveconf:FEED_DATE}',1,4),'-', substr('${hiveconf:FEED_DATE}',5,2),'-',substr('${hiveconf:FEED_DATE}',7,2),' ','00:00:00' )",
        "type": "TIMESTAMP"
      }
    },
    {
      "name": "creation_date",
      "source": {
        "expr": "concat(to_date(FROM_UNIXTIME( UNIX_TIMESTAMP() )),' 00:00:00')",
        "type": "TIMESTAMP"
      }
    }
  ],
  "validations": {
    "row": [],
    "table": []
  },
  "tableSourcesConfig": {
    "feedSource": [
      {
        "name": "feed_custom_omniture",
        "column": ""
      }
    ],
    "whereClause": "sku is not null and feed_date is not null and creation_date is not null",
    "groupBy": null
  },
  "targets": [
    {
      "endpoint": "redshift",
      "args": {
        "table": "saks.custom_omniture",
        "tableTransferTemplate": "Insert into <conf.table> select * from <conf.tempTable>;  drop table if exists <conf.tempTable> ;"
      }
    }
  ]
}