{
  "id": "table_us_ca_mapping",
  "destination": "table/${{ID}}",
  "hiveConfig": {
    "bucketSortKey": "us_sku",
    "bucketCount": 10
  },
  "warningPercLimit": 80,
  "columns": [
    {
      "name": "us_sku",
      "source": {
        "expr": "US_SKU",
        "type": "STRING"
      }
    },{
      "name": "us_upc",
      "source": {
        "expr": "US_UPC",
        "type": "STRING"
      }
    },
    {
      "name": "ca_sku",
      "source": {
        "expr": "CA_SKU",
        "type": "STRING"
      }
    },
    {
      "name": "ca_upc",
      "source": {
        "expr": "CA_UPC",
        "type": "STRING"
      }
    },
    {
      "name": "feed_date",
      "source": {
        "expr": "concat(substr('${hiveconf:FEED_DATE}',1,4),'-', substr('${hiveconf:FEED_DATE}',5,2),'-',substr('${hiveconf:FEED_DATE}',7,2),' ','00:00:00' )",
        "type": "TIMESTAMP"
      }
    },
    {
      "name": "creation_date",
      "source": {
        "expr": "concat(to_date(FROM_UNIXTIME( UNIX_TIMESTAMP() )),' 00:00:00')",
        "type": "TIMESTAMP"
      }
    }
  ],
  "validations": {
    "row": [],
    "table": []
  },
  "tableSourcesConfig": {
    "feedSource": [
      {
        "name": "us_ca_mapping",
        "column": ""
      }
    ],
    "whereClause": null,
    "groupBy": null
  },
  "targets": [
    {
      "endpoint": "redshift",
      "args": {
        "table": "saks.us_ca_mapping",
        "tableTransferTemplate": "Insert into <conf.table> select * from <conf.tempTable>; drop table if exists <conf.tempTable> ;"
      }
    }
  ]
}