{
  "id": "temp_boomerang_catalog_CA",
  "destination": "table/${{ID}}",
  "hiveConfig": {
    "bucketSortKey": "sku",
    "bucketCount": 10
  },
  "warningPercLimit": 80,
  "columns": [
    {
      "name": "sku",
      "source": {
        "expr": "temp_boomerang_catalog_US.sku",
        "type": "STRING"
      }
    },
    {
      "name": "channel_id",
      "source": {
        "expr": "2",
        "type": "INT"
      }
    },
    {
      "name": "title",
      "source": {
        "expr": "temp_boomerang_catalog_US.title",
        "type": "STRING"
      }
    },
    {
      "name": "product_url",
      "source": {
        "expr": "temp_boomerang_catalog_US.product_url",
        "type": "STRING"
      }
    },
    {
      "name": "image_url",
      "source": {
        "expr": "temp_boomerang_catalog_US.image_url",
        "type": "STRING"
      }
    },
    {
      "name": "description",
      "source": {
        "expr": "temp_boomerang_catalog_US.description",
        "type": "STRING"
      }
    },
    {
      "name": "brand",
      "source": {
        "expr": "temp_boomerang_catalog_US.brand",
        "type": "STRING"
      }
    },
    {
      "name": "upc",
      "source": {
        "expr": "lpad(temp_boomerang_catalog_US.upc,13,0)",
        "type": "STRING"
      }
    },
    {
      "name": "ean",
      "source": {
        "expr": "temp_boomerang_catalog_US.ean",
        "type": "STRING"
      }
    },
    {
      "name": "isbn",
      "source": {
        "expr": "temp_boomerang_catalog_US.isbn",
        "type": "STRING"
      }
    },
    {
      "name": "manufacturer",
      "source": {
        "expr": "temp_boomerang_catalog_US.manufacturer",
        "type": "STRING"
      }
    },
    {
      "name": "mpn",
      "source": {
        "expr": "temp_boomerang_catalog_US.mpn",
        "type": "STRING"
      }
    },
    {
      "name": "line",
      "source": {
        "expr": "temp_boomerang_catalog_US.line",
        "type": "STRING"
      }
    },
    {
      "name": "is_marketplace",
      "source": {
        "expr": "temp_boomerang_catalog_US.is_marketplace",
        "type": "SMALLINT"
      }
    },
    {
      "name": "is_privatelabel",
      "source": {
        "expr": "temp_boomerang_catalog_US.is_privatelabel",
        "type": "SMALLINT"
      }
    },
    {
      "name": "gl_l1_id",
      "source": {
        "expr": "temp_boomerang_catalog_US.gl_l1_id",
        "type": "STRING"
      }
    },
    {
      "name": "gl_l1_name",
      "source": {
        "expr": "temp_boomerang_catalog_US.gl_l1_name",
        "type": "STRING"
      }
    },
    {
      "name": "gl_l2_id",
      "source": {
        "expr": "temp_boomerang_catalog_US.gl_l2_id",
        "type": "STRING"
      }
    },
    {
      "name": "gl_l2_name",
      "source": {
        "expr": "temp_boomerang_catalog_US.gl_l2_name",
        "type": "STRING"
      }
    },
    {
      "name": "gl_l3_id",
      "source": {
        "expr": "temp_boomerang_catalog_US.gl_l3_id",
        "type": "STRING"
      }
    },
    {
      "name": "gl_l3_name",
      "source": {
        "expr": "temp_boomerang_catalog_US.gl_l3_name",
        "type": "STRING"
      }
    },
    {
      "name": "gl_l4_id",
      "source": {
        "expr": "temp_boomerang_catalog_US.gl_l4_id",
        "type": "STRING"
      }
    },
    {
      "name": "gl_l4_name",
      "source": {
        "expr": "temp_boomerang_catalog_US.gl_l4_name",
        "type": "STRING"
      }
    },
    {
      "name": "gl_l5_id",
      "source": {
        "expr": "temp_boomerang_catalog_US.gl_l5_id",
        "type": "STRING"
      }
    },
    {
      "name": "gl_l5_name",
      "source": {
        "expr": "temp_boomerang_catalog_US.gl_l5_name",
        "type": "STRING"
      }
    },
    {
      "name": "merch_l1_id",
      "source": {
        "expr": "temp_boomerang_catalog_US.merch_l1_id",
        "type": "STRING"
      }
    },
    {
      "name": "merch_l1_name",
      "source": {
        "expr": "temp_boomerang_catalog_US.merch_l1_name",
        "type": "STRING"
      }
    },
    {
      "name": "merch_l2_id",
      "source": {
        "expr": "temp_boomerang_catalog_US.merch_l2_id",
        "type": "STRING"
      }
    },
    {
      "name": "merch_l2_name",
      "source": {
        "expr": "temp_boomerang_catalog_US.merch_l2_name",
        "type": "STRING"
      }
    },
    {
      "name": "merch_l3_id",
      "source": {
        "expr": "temp_boomerang_catalog_US.merch_l3_id",
        "type": "STRING"
      }
    },
    {
      "name": "merch_l3_name",
      "source": {
        "expr": "temp_boomerang_catalog_US.merch_l3_name",
        "type": "STRING"
      }
    },
    {
      "name": "merch_l4_id",
      "source": {
        "expr": "temp_boomerang_catalog_US.merch_l4_id",
        "type": "STRING"
      }
    },
    {
      "name": "merch_l4_name",
      "source": {
        "expr": "temp_boomerang_catalog_US.merch_l4_name",
        "type": "STRING"
      }
    },
    {
      "name": "merch_l5_id",
      "source": {
        "expr": "temp_boomerang_catalog_US.merch_l5_id",
        "type": "STRING"
      }
    },
    {
      "name": "merch_l5_name",
      "source": {
        "expr": "temp_boomerang_catalog_US.merch_l5_name",
        "type": "STRING"
      }
    },
    {
      "name": "browse_taxonomy",
      "source": {
        "expr": "temp_boomerang_catalog_US.browse_taxonomy",
        "type": "STRING"
      }
    },
    {
      "name": "feed_date",
      "source": {
        "expr": "concat(substr('${hiveconf:FEED_DATE}',1,4),'-', substr('${hiveconf:FEED_DATE}',5,2),'-',substr('${hiveconf:FEED_DATE}',7,2),' ','00:00:00' )",
        "type": "TIMESTAMP"
      }
    },
    {
      "name": "creation_date",
      "source": {
        "expr": "concat(to_date(FROM_UNIXTIME( UNIX_TIMESTAMP() )),' 00:00:00')",
        "type": "TIMESTAMP"
      }
    }
  ],
  "validations": {
    "row": [],
    "table": []
  },
  "tableSourcesConfig": {
        "type": "join",
		"joinType": "inner join",
		"joinTables": 
		[
			"temp_boomerang_catalog_US",
			"temp_table_item_prices_ca"
		],

		"joinRelations": 
		[
			[
				"temp_boomerang_catalog_US.sku",
				"temp_table_item_prices_ca.sku"
			],
			[
				"temp_boomerang_catalog_US.upc",
				"temp_table_item_prices_ca.upc"
			]
    ],
    "whereClause": "sku is not null and feed_date is not null and creation_date is not null and channel_id is not null",
    "groupBy": null
  },
   "isTempTable": true
}