{
  "id": "temp_hierarchy_sku_category_rank",
  "destination": "table/${{ID}}",
  "hiveConfig": {
    "bucketSortKey": "sku",
    "bucketCount": 10
  },
  "warningPercLimit": 80,
  "columns": [
    {
      "name": "sku",
      "source": {
        "expr": "table_custom_hierarchy_catalog.sku",
        "type": "STRING",
        "group": "sku"
      }
    },
    {
      "name": "category_label_1",
      "source": {
        "expr": "table_custom_hierarchy_catalog.category_label_1",
        "type": "STRING",
        "group": "category_label_1"
      }
    },
    {
      "name": "category_label_2",
      "source": {
        "expr": "table_custom_hierarchy_catalog.category_label_2",
        "type": "STRING",
        "group": "category_label_2"
      }
    },
    {
      "name": "category_label_3",
      "source": {
        "expr": "table_custom_hierarchy_catalog.category_label_3",
        "type": "STRING",
        "group": "category_label_3"
      }
    },
    {
      "name": "category_label_4",
      "source": {
        "expr": "table_custom_hierarchy_catalog.category_label_4",
        "type": "STRING",
        "group": "category_label_4"
      }
    },
    {
      "name": "category_label_5",
      "source": {
        "expr": "table_custom_hierarchy_catalog.category_label_5",
        "type": "STRING",
        "group": "category_label_5"
      }
    },
    {
      "name": "category_rank",
      "source": {
        "expr": "CASE WHEN category_label_1 = 'Shoes' THEN 1 WHEN category_label_1 = 'Handbags' THEN 2 WHEN category_label_1 = 'Women\\'s Apparel' THEN 3 WHEN category_label_1 = 'Home' THEN 4 WHEN category_label_1 = 'Kids' THEN 5 WHEN category_label_1 = 'Men' THEN 6 ELSE 7 END",
        "type": "STRING",
        "group": "min(category_rank)"
      }
    },
    {
      "name": "feed_date",
      "source": {
        "expr": "table_custom_hierarchy_catalog.feed_date",
        "type": "TIMESTAMP",
        "group": "feed_date"
      }
    }
  ],
  "validations": {
    "row": [],
    "table": []
  },
  "tableSourcesConfig": {
    "feedSource": [
      {
        "name": "table_custom_hierarchy_catalog"
      }
    ],
    "groupBy": "sku,category_label_1,category_label_2,category_label_3,category_label_4,category_label_5,feed_date"
  },
  "isTempTable": true
}