{
  "id": "temp_hierarchy_sku_unique",
  "destination": "table/${{ID}}",
  "hiveConfig": {
    "bucketSortKey": "sku",
    "bucketCount": 10
  },
  "warningPercLimit": 80,
  "columns": [
    {
      "name": "sku",
      "source": {
        "expr": "sku",
        "type": "STRING"
      }
    },
    {
      "name": "category_label_1",
      "source": {
        "expr": "category_label_1",
        "type": "STRING"
      }
    },
    {
      "name": "category_label_2",
      "source": {
        "expr": "category_label_2",
        "type": "STRING"
      }
    },
    {
      "name": "category_label_3",
      "source": {
        "expr": "category_label_3",
        "type": "STRING"
      }
    },
    {
      "name": "category_label_4",
      "source": {
        "expr": "category_label_4",
        "type": "STRING"
      }
    },
    {
      "name": "category_label_5",
      "source": {
        "expr": "category_label_5",
        "type": "STRING"
      }
    },
    {
      "name": "feed_date",
      "source": {
        "expr": "feed_date",
        "type": "TIMESTAMP"
      }
    },
    {
      "name": "rank_order",
      "source": {
        "expr": "rank_order",
        "type": "STRING"
      }
    }
  ],
  "validations": {
    "row": [],
    "table": []
  },
  "tableSourcesConfig": {
    "feedSource": [
      {
        "name": "temp_hierarchy_sku_pre_unique"
      }
    ],
    "whereClause": "rank_order = 1"
  },
  "isTempTable": true
}