{
  "client": "akshay_kohls",
  "jobPrefix": "etl",
  "feeds": [
    "feeds/kohls-base-catalog-feed.json"
  ],
  "tables": [
    "tables/kohls-base-catalog.json"
  ],
  "dataplatformDest": {
    "host": "azkaban-db-prod-oregon.ckr6oyyfiopw.us-west-2.rds.amazonaws.com",
    "db": "dpstats",
    "user": "azkaban",
    "pass": "azkaban123"
  },
  "emrClusterProperties": {
    "clusterSize": "2",
    "emrMachineTags": {
      "env": "qa",
      "client": "kohls",
      "own": "akshay"
    }
    
  },
  "preScriptConfig" : {
    "name" : "snowflake_kmart"
    },
  "endpoints": [
    {
      "name": "sftp",
      "type": "sftp",
      "properties": {
        "host": "sftp://sftp.kohls.rboomerang.com",
        "user": "sftp-kohls-user",
        "pass": "U5er2@1295"
      }
    },
    {
      "name": "redshift",
      "type": "redshift",
      "properties": {
        "host" : "${{bc_redshift_host}}",
        "db" : "${{bc_redshift_db}}",
        "user" : "${{bc_redshift_user}}",
        "pass" : "${{bc_redshift_pass}}"
      }
    },
    {
      "name": "mysqlsource",
      "type": "mysql",
      "properties": {
        "host": "db.kohls.rboomerang.com",
        "user": "demo",
        "pass": "Boomerang123$",
        "db": "CM"
      }
    },
    {
      "name": "s3",
      "type": "s3",
      "properties": {
        "bucket_name": "etl-backup-all-clients",
        "bucket_region": "us-west-2"
      }
    },
    {
    "name" : "snowflake_kmart",
    "type" : "snowflake",
    "properties" : {
     "host" : "${{snowflake_host}}",
     "user" : "${{snowflake_user}}",
     "db" : "${{snowflake_db}}",
     "warehouse": "${{snowflake_warehouse}}"
    }
  }
  ],
  "logglyKey": "",
  "hadoopJobsStartPushmonTrigger" : "${{pushmon_start}}",
  "hadoopJobsStopPushmonTrigger" : "${{pushmon_end}}",
  "skipValidation": false,
  "s3Bucket": "data-platform-insights",
  "emrClientTag": "kohls",
  "version": 0,
  "reportRecipients": [
    "akshay@boomerangcommerce.com"
  ],
  "useSpotInstanceOnProd":true
}
