	{
	"list": 
	[
		{
			"endpoint": "redshift",
			"alertEmailId": "${{cm_alert_email}}",
			"filename": "UsAutoParts/scripts/alerts/cm_tables_success.csv",
			"skuListing":false
		}
		
	],

	"helpLink": "",
	"abortRun": true,
	"notify": "error",
	"pagerdutyKey": "${{cm_pagerdutykey}}",
	"pagerdutyAlert": true,
	 "message": [
    {
      
      "type": "error",
      "subject": "Abort - Duplicate Records found in pricing_adjusted_cm table",
      "body": "Aborting Run - Duplicate Records found in CM table - pricing_adjusted_cm \n Please remove the duplicates, use the instructions in Help link to resume the run. \n"
    },
    {
      
      "type": "warn",
      "subject": "[Warning]  Duplicates Found",
      "body": "Duplicate Check Execution Complete. \n"
    },
    {
      "type": "success",
      "subject": "[Success] Duplicate Check",
      "body": "Hey Team, \n\nSuccess in executing Duplicate Check."
    }
  ]
}