{
  "endpoint": "redshift",
  "scriptPath": "UsAutoParts/post-etl/materialized_view_query.sql", 
  "abortRun": true,
  "notify": "error",
  "pagerdutyAlert": true,
  "pagerdutyKey": "${{USAP-CS-PA_pagerduty}}",
  "helpLink":"",
  "message": [
    {
      "type": "error",
      "subject": "[PA] Abort - Error in executing materialized_view_query",
      "body": "Aborting Run - Error in executing materialized_view_query.\n Please correct the script, use the instructions in Help link to resume the run."
    },
    {
      "type": "success",
      "subject": "[Success] Executing SQL Script- materialized_view_query execution {{feed_date}}",
      "body": "Hey Team, \n\n  Success in executing materialized_view_query."
    }
  ]
}
