{
  "default": {
    "table": {
    "hive.auto.convert.join" : "false"
    },
    "validation": {
    }
  },
  "dummy": {
    "table": {
      "hive.enforce.sorting": "true",
      "mapreduce.map.memory.mb": "1000",
      "mapreduce.reduce.memory.mb": "1000",
      "mapreduce.map.java.opts": "-Xmx900m",
      "mapreduce.reduce.java.opts": "-Xmx900m",
      "mapred.max.split.size": "50000000",
      "mapreduce.map.output.compress": "true",
      "mapreduce.output.fileoutputformat.compress": "true",
      "mapreduce.job.reduces": "3"
    },
    "validation": {
      "hive.input.format": "org.apache.hadoop.hive.ql.io.BucketizedHiveInputFormat",
      "hive.optimize.bucketmapjoin": "true",
      "hive.optimize.bucketmapjoin.sortedmerge": "true",
      "hive.auto.convert.sortmerge.join": "true",
      "hive.auto.convert.sortmerge.join.noconditionaltask": "true",
      "hive.enforce.bucketmapjoin": "true",
      "mapreduce.map.memory.mb": "2500",
      "mapreduce.reduce.memory.mb": "2500",
      "mapreduce.map.java.opts": "-Xmx2400m",
      "mapreduce.reduce.java.opts": "-Xmx2400m",
      "hive.mapjoin.smalltable.filesize": "2000000000",
      "mapreduce.task.timeout": "6000000"
    }
  },
  "staplesus_poaudit": {
    "table": {
      "hive.enforce.sorting": "true",
      "mapreduce.map.memory.mb": "600",
      "mapreduce.reduce.memory.mb": "2100",
      "mapreduce.map.java.opts": "-Xmx500m",
      "mapreduce.reduce.java.opts": "-Xmx2000m",
      "mapred.max.split.size": "50000000",
      "mapreduce.map.output.compress": "true",
      "mapreduce.output.fileoutputformat.compress": "true",
      "mapreduce.job.reduces": "30",
      "hive.auto.convert.join" : "true"
    },
    "validation": {
    
    }
  }
}
