{
  "id": "base_performance_order_dedup",
  "hiveConfig": {
    "bucketSortKey": "sku",
    "bucketCount": 10
  },
   "destination": "table/${{ID}}",
  "warningPercLimit": 80,
  "columns": [
      {
      "name":"sku",
      "source":{
        "expr":"commerce_feed_redshift_dedup.sku",
        "type":"STRING"
      }
    },
    {
      "name":"revenue",
      "source":{
        "expr":"commerce_feed_redshift_dedup.revenue",
        "type":"STRING"
      }
    },
    {
      "name":"orders",
      "source":{
        "expr":"commerce_feed_redshift_dedup.orders",
        "type":"STRING"
      }
    },
    {
      "name":"units",
      "source":{
        "expr":"commerce_feed_redshift_dedup.units",
        "type":"STRING"
      }
    },
    {
      "name":"feed_date",
      "source":{
        "expr":"commerce_feed_redshift_dedup.feed_date",
        "type":"STRING"
      }
      
    }
 ],
 
  "validations": {
    "row": [],
    "table": []
  },
  "tableSourcesConfig": {
    "feedSource": [
      {
        "name": "commerce_feed_redshift_dedup",
        "column": ""
      }
      ],
    "whereClause": null,
    "groupBy": null,
    "dedup":{
	"columns":"sku",
	"order": null
   }
  },
    "targets": [
    {
      "endpoint": "redshift",
      "args": {
        "table": "public.performance_order_redshift_redshift_dedup_present_only_in_redshift3",
        "target_pk_columns":"sku",
        "tableTransferTemplate":"Insert into <conf.table> select * from <conf.tempTable>;"
      }
    }
  ]
}
