{
    "Name": "etl_groupon_neo4j_matching",
    "command": "mvn clean package -e -U;",
    "directory": "athena_dp-client-configs/ETL_CONFIGS/etl_neo4j_matching/etl_groupon_neo4j_matching",
    "repo": "https://jenkins:jenkins@athena.unfuddle.com/git/athena_dp-client-configs/",
    "war_path": "target/",
    "system": "data_platform_v2",
    "email": "allwin@boomerangcommerce.com",
    "ENV": [
        {
            "env": "beta",
            "clients": ["common"]
        },
        {
            "env": "qa",
            "clients": ["common"]
        },
        {
            "env": "prod",
            "clients": ["common"]
        },
        {
            "env": "uat",
            "clients": ["common"]
        }
    ]
}
