{
  "$schema": "http://json-schema.org/draft-04/schema#",
  "id": "/",
  "type": "object",
  "properties": {
    "client": {
      "id": "client",
      "type": "string",
      "required": true
    },
    "remoteMachine": {
      "id": "remoteMachine",
      "type": "string",
      "required": true
    },
    "feedMetadata": {
      "id": "feedMetadata",
      "type": "string",
      "required": true
    },
    "pagerdutyKey": {
      "id": "remoteMachine",
      "type": "string",
      "required": true
    },
    "notificationEmail": {
      "id": "remoteMachine",
      "type": "string",
      "required": true
    },
    "errorEmail": {
      "id": "remoteMachine",
      "type": "string",
      "required": true
    },  
    "dateFormat": {
      "id": "remoteMachine",
      "type": "string",
      "required": true
    },            
    "endpoints": {
      "id": "endpoints",
      "type": "array",
      "required": true,
      "items": {
        "id": "3",
        "type": "object",
        "properties": {
          "name": {
            "id": "name",
            "type": "string"
          },
          "type": {
            "id": "type",
            "type": "string"
          },
          "properties": {
            "id": "properties",
            "type": "object",
            "properties": {
              "host": {
                "id": "host",
                "type": "string"
              },
              "user": {
                "id": "user",
                "type": "string"
              },
              "pass": {
                "id": "pass",
                "type": "string"
              },
              "db": {
                "id": "db",
                "type": "string"
              }
            },
            "additionalProperties": false
          }
        },
        "additionalProperties": false,
        "type":"object",
        "properties":{
        	"name":{
        		"id": "name",
        		"type": "string"
        	},
        	"type": {
        		"id": "type",
        		"type": "string"
        	},
        	"mode":{
        		"id": "mode",
        		"type": "string"
        	},
        	"properties": {
        		"bucket_name": {
        			"id": "bucket_name",
        			"type": "string"
        		},
        		"bucket_region": {
        			"id": "bucket_region",
        			"type": "string"
        		}
        	}
        },
        "additionalProperties": false
      },
      "additionalItems": false
    }
  },
  "additionalProperties": false,
  "required": [
    "client",
    "endpoints"
  ]
}