{
  "scriptPath": "UsAutoParts/scripts/QA_Job_Executor.sh",
  "arguments": [
    {
      "argument": "http://ec2-54-90-127-6.compute-1.amazonaws.com"
    },
    {
      "argument": "azkaban"
    },
    {
      "argument": "azkaban"
    },
    {
      "argument": "azkaban-to-jenkins"
    },
    {
      "argument": "azkaban-to-jenkins"
    },
    {
      "argument": "http://testing.rboomerang.com:9090"
    },
    {
      "argument": "etl_daily_run_mdd_tables"
    },
    {
      "argument": "usap"
    }
  ],
  "abortRun": false,
  "notify": "error",
  "pagerdutyAlert": false,
  "listMissingFiles": false,
  "notificationEmail":"shivasis@boomerangcommerce.com,ravi@boomerangcommerce,akshay@boomerangcommerce.com,syed@boomerangcommerce.com",
  "message": [
    {
      "type": "error",
      "subject": "{{clientTag}}Error while triggering  MDD QA JOB on  {{feed_date}} the scripts",
      "body": "Hey Team, \n\n Error while processing following scripts: \n\n\n"
    },
    {
      "type": "success",
      "subject": "{{clientTag}} Success while triggering MDD QA JOB on {{feed_date}}",
      "body": "Hey Team, \n\n Success in processing all following scripts."
    }
  ]
}
