{
  "azkabanUrl": "prod.azkaban.rboomerang.com",
  "azkabanPort": "8081",
  "azkabanUserName": "azkaban_ocd",
  "azkabanPassword": "Azkaban_0CD",
  "projectName": "measurement-service",
  "flowName": "measurement_service",
  "successMailList": ["usautoparts-alerts@boomerangcommerce.com"],
  "failureMailList": ["usautoparts-alerts@boomerangcommerce.com"],
  "parallel": "parallelOff",
  "responseSQS": "is-dd-service",
  "SQSRegion": "us-west-2",
  "waitTime": 1,
  "numberOfMessagesPool": 10,
  "timeOut" : 400,
  "pagerdutyAlert": true,
  "pagerdutyKey": "ba3970cc67fd4c7f83b24de40de65443",
  "helpLink": "https://www.google.com",
  "abortRun": true,
  "notify": "error",
  "message":
  [
    {
      "type": "error",
      "subject": " Internal Error - Trigger Measurement Service Failed",
      "body": "Failed while processing the file"
    },

    {
      "type": "success",
      "subject": "Trigger Measurement Service Execution Successful",
      "body": " Success in processing the file"
    }
  ]
}