	{
	"list": 
	[
		{
			"endpoint": "redshift",
			"alertEmailId": "pricing-dev@boomerangcommerce.com",
			"filename": "UsAutoParts/scripts/alerts/po_tables_success.csv",
			"skuListing":false
		}
	],

	"helpLink": "",
	"abortRun": false,
	"notify": "warn",
	"pagerdutyKey": "aeca58aba58d41c5ac44193a1345c8c7",
	"pagerdutyAlert": true,
	 "message": [
    {
      
      "type": "error",
      "subject": "Abort - Duplicate Records found in PO table",
      "body": "Aborting Run - Duplicate Records found in PO tables. \n Please remove the duplicates, use the instructions in Help link to resume the run. \n"
    },
    {
      
      "type": "warn",
      "subject": "[Warning]  Duplicates Found",
      "body": "Duplicate Check Execution Complete. \n"
    },
    {
      "type": "success",
      "subject": "[Success] Duplicate Check",
      "body": "Hey Team, \n\nSuccess in executing Duplicate Check."
    }
  ]
}