{
  "url": "http://pshmn.com/Wrgneq",
  "helpLink": "",
  "abortRun": false,
  "notify": "error",
  "pagerdutyKey": "",
  "pagerdutyAlert": false,
  "message": [
    {
      "type": "error",
      "subject": "Error - Pushmon failed",
      "body": ""
    },
    {
      "type": "warn",
      "subject": "Warning - Pushmon failed",
      "body": ""
    },
    {
      "type": "success",
      "subject": "Success - Pushmon successful",
      "body": ""
    }
  ]
}