{
  "id": "item_master_table",
  "destination": "clients/item_master_table/output/tables/${{ID}}/",
  "hiveConfig": {
    "bucketSortKey": "sku",
    "bucketCount": 10
  },
  "warningPercLimit": 80,
  "columns": [
   {
       "name" : "item_guid",
       "source" : {
        "expr" : "unhex(regexp_replace(reflect('java.util.UUID', 'randomUUID'), '-', ''))",
        "type" : "BINARY"
       }
    },{
       "name" : "sku",
       "source" : {
        "expr" : "sku",
        "type" : "STRING"
       }
    },{
       "name" : "retailer_id",
       "source" : {
        "expr" : "1",
        "type" : "INT"
       }
    },{
       "name" : "brand",
       "source" : {
        "expr" : "brand",
        "type" : "STRING"
       }
    },{
       "name" : "channel",
       "source" : {
        "expr" : "NULL",
        "type" : "STRING"
       }
    },{
       "name" : "msrp",
       "source" : {
        "expr" : "NULL",
        "type" : "STRING"
       }
    },{
       "name" : "map_price",
       "source" : {
        "expr" : "NULL",
        "type" : "STRING"
       }
    },{
       "name" : "regular_retail_price",
       "source" : {
        "expr" : "NULL",
        "type" : "STRING"
       }
    },{
       "name" : "model",
       "source" : {
        "expr" : "mpn",
        "type" : "STRING"
       }
    },{
       "name" : "title",
       "source" : {
        "expr" : "title",
        "type" : "STRING"
       }
    },{
       "name" : "description",
       "source" : {
        "expr" : "description",
        "type" : "STRING"
       }
    },{
       "name" : "cat_identifier",
       "source" : {
        "expr" : "NULL",
        "type" : "STRING"
       }
    },{
       "name" : "category_level1",
       "source" : {
        "expr" : "merch_l1_name",
        "type" : "STRING"
       }
    },{
       "name" : "category_level2",
       "source" : {
        "expr" : "merch_l2_name",
        "type" : "STRING"
       }
    },{
       "name" : "category_level3",
       "source" : {
        "expr" : "merch_l3_name",
        "type" : "STRING"
       }
    },{
       "name" : "category_level4",
       "source" : {
        "expr" : "merch_l4_name",
        "type" : "STRING"
       }
    },{
       "name" : "merchant_cat_identifier",
       "source" : {
        "expr" : "NULL",
        "type" : "STRING"
       }
    },{
       "name" : "merchant_category_level1",
       "source" : {
        "expr" : "NULL",
        "type" : "STRING"
       }
    },{
       "name" : "merchant_category_level2",
       "source" : {
        "expr" : "NULL",
        "type" : "STRING"
       }
    },{
       "name" : "merchant_category_level3",
       "source" : {
        "expr" : "NULL",
        "type" : "STRING"
       }
    },{
       "name" : "merchant_category_level4",
       "source" : {
        "expr" : "NULL",
        "type" : "STRING"
       }
    },{
       "name" : "upc",
       "source" : {
        "expr" : "upc",
        "type" : "STRING"
       }
    },{
       "name" : "gtin",
       "source" : {
        "expr" : "NULL",
        "type" : "STRING"
       }
    },{
       "name" : "isbn",
       "source" : {
        "expr" : "isbn",
        "type" : "STRING"
       }
    },{
       "name" : "mpn",
       "source" : {
        "expr" : "mpn",
        "type" : "STRING"
       }
    },{
       "name" : "gender",
       "source" : {
        "expr" : "NULL",
        "type" : "STRING"
       }
    },{
       "name" : "color",
       "source" : {
        "expr" : "NULL",
        "type" : "STRING"
       }
    },{
       "name" : "condition",
       "source" : {
        "expr" : "NULL",
        "type" : "STRING"
       }
    },{
       "name" : "length",
       "source" : {
        "expr" : "NULL",
        "type" : "STRING"
       }
    },{
       "name" : "lengthUOM",
       "source" : {
        "expr" : "NULL",
        "type" : "STRING"
       }
    },{
       "name" : "height",
       "source" : {
        "expr" : "NULL",
        "type" : "STRING"
       }
    },{
       "name" : "heightUOM",
       "source" : {
        "expr" : "NULL",
        "type" : "STRING"
       }
    },{
       "name" : "weight",
       "source" : {
        "expr" : "NULL",
        "type" : "STRING"
       }
    },{
       "name" : "weightUOM",
       "source" : {
        "expr" : "NULL",
        "type" : "STRING"
       }
    },{
       "name" : "width",
       "source" : {
        "expr" : "NULL",
        "type" : "STRING"
       }
    },{
       "name" : "widthUOM",
       "source" : {
        "expr" : "NULL",
        "type" : "STRING"
       }
    },{
       "name" : "pack_quantity",
       "source" : {
        "expr" : "NULL",
        "type" : "STRING"
       }
    },{
       "name" : "product_link",
       "source" : {
        "expr" : "product_url",
        "type" : "STRING"
       }
    },{
       "name" : "image_link",
       "source" : {
        "expr" : "image_url",
        "type" : "STRING"
       }
    },{
       "name" : "see_store_price_code",
       "source" : {
        "expr" : "NULL",
        "type" : "STRING"
       }
    },{
       "name" : "is_private_label",
       "source" : {
        "expr" : "is_privatelabel",
        "type" : "STRING"
       }
    },{
       "name" : "item_status",
       "source" : {
        "expr" : "NULL",
        "type" : "STRING"
       }
    },{
       "name" : "item_status_detail",
       "source" : {
        "expr" : "NULL",
        "type" : "STRING"
       }
    },{
       "name" : "drop_ship",
       "source" : {
        "expr" : "NULL",
        "type" : "STRING"
       }
    },{
       "name" : "feed_timestamp",
       "source" : {
        "expr" : "NULL",
        "type" : "STRING"
       }
    },{
       "name" : "created",
       "source" : {
        "expr" : "creation_date",
        "type" : "TIMESTAMP"
       }
    },{
       "name" : "updated",
       "source" : {
        "expr" : "feed_date",
        "type" : "TIMESTAMP"
       }
    },{
       "name" : "is_sku_valid",
       "source" : {
        "expr" : "NULL",
        "type" : "STRING"
       }
    },{
       "name" : "is_stale",
       "source" : {
        "expr" : "0",
        "type" : "STRING"
       }
    }
  ],
  "validations": {
    "row": [],
    "table": []
  },
  "tableSourcesConfig": {
    "feedSource": [
      {
        "name": "boomerang_catalog_feed",
        "column": "sku"
      }

    ],
    "whereClause": "sku is not null",
    "groupBy": null,
    "dedup": {
        "columns": "sku",
        "order": null
    }
  },
    "targets": [
    {
      "endpoint": "akshay",
      "args": {
        "table": "item_master_${{client_table}}",
        "tableTransferTemplate": "ALTER TABLE <conf.tempTable> ADD INDEX sku_index (sku); update <conf.tempTable> im_tmp, <conf.table> im set im_tmp.item_guid = im.item_guid,  im_tmp.created = im.created where im_tmp.sku = im.sku; update <conf.tempTable> set item_guid = unhex(replace(UUID(), '-', '')) where sku not in (select sku from <conf.table>); update <conf.table> set is_stale = 1 where is_stale = 0; ALTER TABLE <conf.tempTable> DROP INDEX sku_index; insert into <conf.tempTable> select * from <conf.table> where sku not in (select sku from <conf.tempTable>); DROP TABLE IF EXISTS <conf.table>_bkp; RENAME TABLE <conf.table> to <conf.table>_bkp; ALTER TABLE <conf.tempTable> ENABLE KEYS; RENAME TABLE <conf.tempTable> to <conf.table>;             update <conf.table> set title = replace(title,'à','a');            update <conf.table> set title = replace(title,'á','a');            update <conf.table> set title = replace(title,'â','a');            update <conf.table> set title = replace(title,'ã','a');            update <conf.table> set title = replace(title,'ä','a');            update <conf.table> set title = replace(title,'å','a');            update <conf.table> set title = replace(title,'æ','a');            update <conf.table> set title = replace(title,'ç','c');            update <conf.table> set title = replace(title,'è','e');            update <conf.table> set title = replace(title,'é','e');            update <conf.table> set title = replace(title,'ê','e');            update <conf.table> set title = replace(title,'ë','e');            update <conf.table> set title = replace(title,'ì','i');            update <conf.table> set title = replace(title,'í','i');            update <conf.table> set title = replace(title,'î','i');            update <conf.table> set title = replace(title,'ï','i');            update <conf.table> set title = replace(title,'ð','o');            update <conf.table> set title = replace(title,'ñ','n');            update <conf.table> set title = replace(title,'ò','o');            update <conf.table> set title = replace(title,'ó','o');            update <conf.table> set title = replace(title,'ô','o');            update <conf.table> set title = replace(title,'õ','o');            update <conf.table> set title = replace(title,'ö','o');            update <conf.table> set title = replace(title,'ø','o');            update <conf.table> set title = replace(title,'ù','u');            update <conf.table> set title = replace(title,'ú','u');            update <conf.table> set title = replace(title,'û','u');            update <conf.table> set title = replace(title,'ý','y');            update <conf.table> set title = replace(title,'ý','y');            update <conf.table> set title = REPLACE(CONVERT(title USING ascii), '?', '');            update <conf.table> set brand = replace(brand,'à','a');            update <conf.table> set brand = replace(brand,'á','a');            update <conf.table> set brand = replace(brand,'â','a');            update <conf.table> set brand = replace(brand,'ã','a');            update <conf.table> set brand = replace(brand,'ä','a');            update <conf.table> set brand = replace(brand,'å','a');            update <conf.table> set brand = replace(brand,'æ','a');            update <conf.table> set brand = replace(brand,'ç','c');            update <conf.table> set brand = replace(brand,'è','e');            update <conf.table> set brand = replace(brand,'é','e');            update <conf.table> set brand = replace(brand,'ê','e');            update <conf.table> set brand = replace(brand,'ë','e');            update <conf.table> set brand = replace(brand,'ì','i');            update <conf.table> set brand = replace(brand,'í','i');            update <conf.table> set brand = replace(brand,'î','i');            update <conf.table> set brand = replace(brand,'ï','i');            update <conf.table> set brand = replace(brand,'ð','o');            update <conf.table> set brand = replace(brand,'ñ','n');            update <conf.table> set brand = replace(brand,'ò','o');            update <conf.table> set brand = replace(brand,'ó','o');            update <conf.table> set brand = replace(brand,'ô','o');            update <conf.table> set brand = replace(brand,'õ','o');            update <conf.table> set brand = replace(brand,'ö','o');            update <conf.table> set brand = replace(brand,'ø','o');            update <conf.table> set brand = replace(brand,'ù','u');            update <conf.table> set brand = replace(brand,'ú','u');            update <conf.table> set brand = replace(brand,'û','u');            update <conf.table> set brand = replace(brand,'ý','y');            update <conf.table> set brand = replace(brand,'ý','y');            update <conf.table> set brand = REPLACE(CONVERT(brand USING ascii), '?', '');update <conf.table> set category_level1 = replace(category_level1,'à','a');            update <conf.table> set category_level1 = replace(category_level1,'á','a');            update <conf.table> set category_level1 = replace(category_level1,'â','a');            update <conf.table> set category_level1 = replace(category_level1,'ã','a');            update <conf.table> set category_level1 = replace(category_level1,'ä','a');            update <conf.table> set category_level1 = replace(category_level1,'å','a');            update <conf.table> set category_level1 = replace(category_level1,'æ','a');            update <conf.table> set category_level1 = replace(category_level1,'ç','c');            update <conf.table> set category_level1 = replace(category_level1,'è','e');            update <conf.table> set category_level1 = replace(category_level1,'é','e');            update <conf.table> set category_level1 = replace(category_level1,'ê','e');            update <conf.table> set category_level1 = replace(category_level1,'ë','e');            update <conf.table> set category_level1 = replace(category_level1,'ì','i');            update <conf.table> set category_level1 = replace(category_level1,'í','i');            update <conf.table> set category_level1 = replace(category_level1,'î','i');            update <conf.table> set category_level1 = replace(category_level1,'ï','i');            update <conf.table> set category_level1 = replace(category_level1,'ð','o');            update <conf.table> set category_level1 = replace(category_level1,'ñ','n');            update <conf.table> set category_level1 = replace(category_level1,'ò','o');            update <conf.table> set category_level1 = replace(category_level1,'ó','o');            update <conf.table> set category_level1 = replace(category_level1,'ô','o');            update <conf.table> set category_level1 = replace(category_level1,'õ','o');            update <conf.table> set category_level1 = replace(category_level1,'ö','o');            update <conf.table> set category_level1 = replace(category_level1,'ø','o');            update <conf.table> set category_level1 = replace(category_level1,'ù','u');            update <conf.table> set category_level1 = replace(category_level1,'ú','u');            update <conf.table> set category_level1 = replace(category_level1,'û','u');            update <conf.table> set category_level1 = replace(category_level1,'ý','y');            update <conf.table> set category_level1 = replace(category_level1,'ý','y');            update <conf.table> set category_level1 = REPLACE(CONVERT(category_level1 USING ascii), '?', '');"
      }
    },
    {
      "endpoint": "s3_dest",
      "args": {
        "path" : "${{s3_whole_path}}"
      }
    }
  ]
}
