{
  "client": "matching_pac",
  "feeds": [
    "feeds/feed_competition.json",
    "feeds/feed_matching_info.json",
    "feeds/feed_item_prices.json",
    "feeds/feed_boomerang_catalog.json"
  ],
  "tables": [
    "tables/table_competition_aggregate_data.json",
    "tables/table_pricing_adjusted_cm.json",
    "tables/table_competition_variant_json_temp.json",
    "tables/table_competition_processed_data.json"
  ],
  "dataplatformDest": {
    "host": "azkaban-db-prod-oregon.ckr6oyyfiopw.us-west-2.rds.amazonaws.com",
    "db": "dpstats",
    "user": "azkaban",
    "pass": "azkaban123"
  },
  "endpoints": [
    {
      "name": "redshift_source",
      "type": "redshift",
      "properties": {
        "host" : "${{bc_redshift_1_host}}",
        "db" : "${{bc_redshift_1_db}}",
        "user" : "${{bc_redshift_1_user}}" ,
        "pass" : "${{bc_redshift_1_pass}}"
      }
    },
    {
      "name": "redshift_destination",
      "type": "redshift",
      "properties": {
        "host" : "${{bc_redshift_2_host}}",
        "db" : "${{bc_redshift_2_db}}",
        "user" : "${{bc_redshift_2_user}}" ,
        "pass" : "${{bc_redshift_2_pass}}"
      }
    }
  ],
  "logglyKey": "fb0db062-9ac1-4b2a-90be-13c29cf16b4c",
  "pagerdutyKey" : "${{pagerduty_key}}",
  "skipValidation": false,
  "s3Bucket": "data-platform-insights",
  "emrClientTag": "internal",
  "version": 0
}
