{
  "endpoints" : [ {
    "name" : "s3",
    "type" : "s3"
  }, {
    "name" : "sftp",
    "type" : "sftp",
    "properties" : {
      "pass" : "${{etl-files_sftp_pass}}",
      "host" : "${{etl-files_sftp_host}}",
      "user" : "${{etl-files_sftp_user}}"
    }
  }, {
    "name" : "redshift",
    "type" : "redshift",
    "properties" : {
      "pass" : "${{etl-files_redshift_pass}}",
      "host" : "${{etl-files_redshift_host}}",
      "user" : "${{etl-files_redshift_user}}",
      "db" : "${{etl-files_redshift_db}}"
    }
  }, {
    "name" : "prodMysql",
    "type" : "mysql",
    "properties" : {
      "pass" : "mysqlPass",
      "host" : "mysqlHost",
      "user" : "mysqlUser",
      "db" : "CMN"
    }
  } ],
  "pagerdutyKey" : "${{pagerduty_key}}",
  "emrClusterProperties" : {
    "emrMachineTags" : {
      "own" : "QA-TEAM",
      "client" : "Saks_akshay",
      "env" : "QA"
    },
    "clusterSize" : "3"
  },
  "version" : 0,
  "s3Bucket" : "data-platform-insights",
  "skipValidation" : false,
  "tables" : ["tables/table_base_boomerang_catalog.json",
  			"tables/table_performance_order.json",
  			"tables/table_item_prices.json",
			"tables/table_item_cost.json",
			"tables/temp_hierarchy_sku_pre_unique.json",
			"tables/temp_hierarchy_sku_unique.json",
			"tables/table_custom_omniture.json",
 			"tables/table_custom_item_prices.json",
 			"tables/table_custom_item_cost.json",
 			"tables/table_custom_inventory.json",
 			"tables/table_custom_catalog.json",
 			"tables/table_custom_hierarchy_catalog.json",
 			"tables/table_custom_hierarchy_mapping.json" ,
			"tables/temp_hierarchy_sku_category_rank.json",
			"tables/temp_table_item_prices.json",
			"tables/temp_table_item_prices_ca.json",
			"tables/table_base_performance_order.json",
			"tables/temp_table_performance_order.json",
			"tables/temp_boomerang_catalog_US.json",
			"tables/temp_boomerang_catalog_CA.json",
			"tables/table_item_prices_ca.json",
			"tables/table_us_ca_mapping.json"],
  "reportRecipients" : [ "${{report_recipients}}" ],
  "client" : "SaksFifthAvenue-CA",
  "feeds" : [ "feeds/feed_us_ca_mapping.json",
			"feeds/feed_custom_omniture.json",
			"feeds/feed_custom_item_prices.json",
 			"feeds/feed_custom_item_cost.json",
 			"feeds/feed_custom_inventory.json",
 			"feeds/feed_custom_performance_order.json",
 			"feeds/feed_item_master_feed.json",
			"feeds/feed_hierarchy_feed.json",
			"feeds/feed_item_prices_ca.json"],
  "jobPrefix" : "etl",
  "emrClientTag" : "${{project_name}}",
  "dataplatformDest" : {
    "pass" : "azkaban123",
    "host" : "azkaban-db-prod-oregon.ckr6oyyfiopw.us-west-2.rds.amazonaws.com",
    "user" : "azkaban",
    "db" : "dpstats"
  }
}