{
    "Name": "dp_snapshot_test",
    "command": "mvn clean package -e -U;",
    "directory": "athena_dp-client-configs/dp_test/dp_snapshot_test",
    "repo": "https://jenkins:jenkins@athena.unfuddle.com/git/athena_dp-client-configs/",
    "war_path": "target/",
    "system": "data_platform_v2",
    "email": "akshay@boomerangcommerce.com",
    "ENV": [
        {
            "env": "beta",
            "clients": ["common"]
        },
        {
            "env": "qa",
            "clients": ["common"]
        },
        {
            "env": "prod",
            "clients": ["common"]
        },
        {
            "env": "uat",
            "clients": ["common"]
        }
    ]
}
