{
  "default": {
    "table": {
      "hive.input.format": "org.apache.hadoop.hive.ql.io.BucketizedHiveInputFormat",
      "hive.optimize.bucketmapjoin": "true",
      "hive.optimize.bucketmapjoin.sortedmerge": "true",
      "hive.auto.convert.sortmerge.join": "true",
      "hive.auto.convert.sortmerge.join.noconditionaltask": "true",
      "hive.enforce.bucketmapjoin": "true",
       "hive.enforce.sorting": "true",
      "hive.mapjoin.smalltable.filesize": "2000000000",
      "mapreduce.task.timeout": "6000000",
      "mapreduce.map.output.compress": "true",
      "mapreduce.output.fileoutputformat.compress": "true"
    },
    "validation": {
	  "hive.input.format": "org.apache.hadoop.hive.ql.io.BucketizedHiveInputFormat",
      "hive.optimize.bucketmapjoin": "true",
      "hive.optimize.bucketmapjoin.sortedmerge": "true",
      "hive.auto.convert.sortmerge.join": "true",
      "hive.auto.convert.sortmerge.join.noconditionaltask": "true",
      "hive.enforce.bucketmapjoin": "true",
       "hive.enforce.sorting": "true",
      "hive.mapjoin.smalltable.filesize": "2000000000",
      "mapreduce.task.timeout": "6000000",
      "mapreduce.map.output.compress": "true",
      "mapreduce.output.fileoutputformat.compress": "true"
    }
  }
}
