{
  "list": {
    "source": {
      "endpointName": "sftp",
      "path": "/prod/input/ebay/"
    },
    "destination": {
     "endpointName": "s3",
      "path": "${{ebay_data_copy_s3_path}}",
      "fileName": "ebay_{{feed_date}}.txt",
      "feed_date": "YYYYMMdd,0"
    }
  },
  "pagerdutyAlert": true,
  "pagerdutyKey": "${{pagerduty_key}}",
  "helpLink": "",
  "abortRun": true,
  "notify": "error",
 "message": [
    {
      "type": "error",
      "subject": "[IS] Abort run - [Error] Ebay MostRecentFeed processor",
      "body": "Ebay MostRecentFeed Processor failed!!"
    },
    {
      "type": "success",
      "subject": "[Success] Ebay MostRecentFeed processor",
      "body": "ebay MostRecentFeed Processor success"
    }
  ]
}