{
    "scriptPath": "${{produc_url_pre_etl}}",
    "arguments":
    [
        {
            "argument": ""
        }
    ],
    "helpLink": "",
"abortRun":true,
"notify":"error",
"pagerdutyAlert":true,
"pagerdutyKey":"${{pagerduty_key}}",
"listMissingFiles":false,
"message":[
{
"type":"error",
"subject":"[Abort] Error while processing scripts {{feed_date}}",
"body":"Hey Team, \n\n Aborting Run - Error while processing following scripts: \n product_urls.sh"
},
{
"type":"success",
"subject":"Success while processing {{feed_date}}",
"body":"Hey Team, \n\n Success in processing all following scripts. \n product_urls.sh"
}
]
}








