{
  "client": "internal_test_automation",
  "jobPrefix": "etl",
  "feeds": [
   "feeds/custom-Commerce_Redshift.json"

      ],
  "tables": [
    "tables/custom-base-performance-order_dedup.json"
   ],
  "dataplatformDest": {
    "host": "azkaban-db-prod-oregon.ckr6oyyfiopw.us-west-2.rds.amazonaws.com",
    "db": "dpstats",
    "user": "azkaban",
    "pass": "azkaban123"
  },
  "emrClusterProperties": {
    "clusterSize": "1",
    "emrMachineTags": {
      "env": "${{qa}}",
      "client": "${{client}}",
      "own": "${{own}}"
    },
    "switchToMRExecutionEngine":false
  },
  "endpoints": [
    {
      "name": "sftp",
      "type": "sftp",
      "properties": {
        "host": "${{sftp_host}}",
        "user": "${{sftp_user}}",
        "pass": "${{sftp_pass}}"
      }
    },
    {
      "name": "redshift",
      "type": "redshift",
      "properties": {
        "host" : "${{bc_redshift_host}}",
        "user" : "${{bc_redshift_user}}",
        "pass" : "${{bc_redshift_pass}}",
        "db" : "${{bc_redshift_db}}"
      }
    },
    {
      "name": "mysqlsource",
      "type": "mysql",
      "properties": {
         "host" : "${{bc_mysql_host}}",
        "user" : "${{bc_mysql_user}}",
        "pass" : "${{bc_mysql_pass}}",
        "db" : "${{bc_mysql_db}}"
      }
    },
    {
      "name": "s3",
      "type": "s3",
      "properties": {
        "bucket_name": "etl-backup-all-clients",
        "bucket_region": "us-west-2"
      }
    },
    {
    "name" : "sftp_1",
    "type" : "sftp",
    "properties" : {
      "pass" : "office-sftp-user-internal-pass",
      "host" : "sftp://sftp.rboomerang.com",
      "user" : "office-sftp-user-internal"
    }
  }, {
    "name" : "sftp_2",
    "type" : "sftp",
    "properties" : {
      "pass" : "${{etl-files_sftp_2_pass}}",
      "host" : "${{etl-files_sftp_2_host}}",
      "user" : "${{etl-files_sftp_2_user}}"
    }
  }, {
    "name" : "redshift_kmart",
    "type" : "redshift",
    "properties" : {
      "pass" : "${{etl-files_redshift_pass}}",
      "host" : "${{etl-files_redshift_host}}",
      "user" : "${{etl-files_redshift_user}}",
      "db" : "${{etl-files_redshift_db}}"
    }
  },
  {
    "name" : "snowflake_kmart",
    "type" : "snowflake",
    "properties" : {
     "host" : "${{snowflake_host}}",
     "user" : "${{snowflake_user}}",
     "pass" : "${{snowflake_password}}",
     "db" : "${{snowflake_db}}",
     "warehouse": "${{snowflake_warehouse}}"
    }
  } ,
   {
    "name" : "snowflake",
    "type" : "snowflake",
    "properties" : {
    "host" : "${{snowflake_host}}",
     "user" : "${{snowflake_user}}",
     "db" : "${{snowflake_db}}",
     "warehouse": "${{snowflake_warehouse}}"
    }
  }   
  ],
  "workflowTriggers": [
        {
            "name": "WorkFlowTriggerJob",
            "azkaban_user": "azkaban_dp_user",
            "azkaban_pass": "A2kaban_dP123$",
            "azkaban_executor": "http://qa.azkaban.rboomerang.com:8081",
            "project": "workflow_test_dp",
            "flow": "workflow",
            "dependencies": ["pre_cleanup"],
            "args": {
            }
        }
    ],
  "logglyKey": "",
  "s3PreScript":"akshay_prescript.sh",
  "pagerdutyKey": null,
  "skipValidation": true,
  "s3Bucket": "data-platform-insights",
  "emrClientTag": "internal",
  "hadoopJobsStartPushmonTrigger" : "${{pushmon_start}}",
  "hadoopJobsStopPushmonTrigger" : "${{pushmon_end}}",
  "version": 0,
  "reportRecipients": [
  "akshay@boomerangcommerce.com"
  ],
  "emrClientTag" : "${{project_name}}",
  "useSpotInstanceOnProd":false,
  "skip_cluster_recommendation":false
}
