{
  "$schema": "http://json-schema.org/draft-04/schema#",
  "type": "object",
  "properties": {
    "list": {
      "type": "object",
      "properties": {
        "source": {
          "type": "object",
          "properties": {
            "endpointName": {
              "type": "string"
            },
            "path": {
              "type": "string"
            },
            "fileName": {
              "type": "string"
            },
            "feed_date": {
              "type": "string"
            }
          },
          "required": [
            "endpointName",
            "path",
            "fileName",
            "feed_date"
          ]
        },
        "destination": {
          "type": "object",
          "properties": {
            "endpointName": {
              "type": "string"
            },
            "path": {
              "type": "string"
            },
            "fileName": {
              "type": "string"
            },
            "feed_date": {
              "type": "string"
            }
          },
          "required": [
            "endpointName",
            "path",
            "fileName",
            "feed_date"
          ]
        },
        "delimiter": {
          "type": "string"
        },
        "qouteCharacter": {
          "type": "string"
        },
        "columns": {
          "type": "array",
          "items": {
            "type": "string"
          }
        },
        "action": {
          "type": "object",
          "properties": {
            "remove": {
              "type": "boolean"
            },
            "add": {
              "type": "boolean"
            }
          },
          "required": [
            "remove",
            "add"
          ]
        }
      },
      "required": [
        "source",
        "destination",
        "delimiter",
        "qouteCharacter",
        "columns",
        "action"
      ]
    },
    "pagerdutyAlert": {
      "type": "boolean"
    },
    "pagerdutyKey": {
      "type": "string"
    },
    "helpLink": {
      "type": "string"
    },
    "abortRun": {
      "type": "boolean"
    },
    "notify": {
      "type": "string"
    },
    "message": {
      "type": "array",
      "items": {
        "type": "object",
        "properties": {
          "type": {
            "type": "string"
          },
          "subject": {
            "type": "string"
          },
          "body": {
            "type": "string"
          }
        },
        "required": [
          "type",
          "subject",
          "body"
        ]
      }
    }
  },
  "required": [
    "list",
    "pagerdutyAlert",
    "pagerdutyKey",
    "abortRun",
    "notify",
    "message"
  ]
}