{
  "$schema": "http://json-schema.org/draft-04/schema#",
  "id": "http://jsonschema.net",
  "type": "object",
  "properties": {
    "list": {
      "id": "http://jsonschema.net/list",
      "type": "array",
      "items": [
        {
          "id": "http://jsonschema.net/list/0",
          "type": "object",
          "properties": {
            "endpoint": {
              "id": "http://jsonschema.net/list/0/endpoint",
              "type": "string"
            },
            "alertEmailId": {
              "id": "http://jsonschema.net/list/0/alertEmailId",
              "type": "string"
            },
            "filename": {
              "id": "http://jsonschema.net/list/0/filename",
              "type": "string"
            },
            "skuListing": {
              "id": "http://jsonschema.net/list/0/skuListing",
              "type": "boolean"
            }
          },
          "required": [
            "endpoint",
            "alertEmailId",
            "filename",
            "skuListing"
          ]
        },
        {
          "id": "http://jsonschema.net/list/1",
          "type": "object",
          "properties": {
            "endpoint": {
              "id": "http://jsonschema.net/list/1/endpoint",
              "type": "string"
            },
            "alertEmailId": {
              "id": "http://jsonschema.net/list/1/alertEmailId",
              "type": "string"
            },
            "filename": {
              "id": "http://jsonschema.net/list/1/filename",
              "type": "string"
            },
            "skuListing": {
              "id": "http://jsonschema.net/list/1/skuListing",
              "type": "boolean"
            }
          }
        },
        {
          "id": "http://jsonschema.net/list/2",
          "type": "object",
          "properties": {
            "endpoint": {
              "id": "http://jsonschema.net/list/2/endpoint",
              "type": "string"
            },
            "alertEmailId": {
              "id": "http://jsonschema.net/list/2/alertEmailId",
              "type": "string"
            },
            "filename": {
              "id": "http://jsonschema.net/list/2/filename",
              "type": "string"
            },
            "skuListing": {
              "id": "http://jsonschema.net/list/2/skuListing",
              "type": "boolean"
            }
          }
        },
        {
          "id": "http://jsonschema.net/list/3",
          "type": "object",
          "properties": {
            "endpoint": {
              "id": "http://jsonschema.net/list/3/endpoint",
              "type": "string"
            },
            "alertEmailId": {
              "id": "http://jsonschema.net/list/3/alertEmailId",
              "type": "string"
            },
            "filename": {
              "id": "http://jsonschema.net/list/3/filename",
              "type": "string"
            },
            "skuListing": {
              "id": "http://jsonschema.net/list/3/skuListing",
              "type": "boolean"
            }
          }
        }
      ],
      "required": [
        "0",
        "1",
        "2",
        "3"
      ]
    },
    "helpLink": {
      "id": "http://jsonschema.net/helpLink",
      "type": "string"
    },
    "abortRun": {
      "id": "http://jsonschema.net/abortRun",
      "type": "boolean"
    },
    "notify": {
      "id": "http://jsonschema.net/notify",
      "type": "string"
    },
    "pagerdutyKey": {
      "id": "http://jsonschema.net/pagerdutyKey",
      "type": "string"
    },
    "pagerdutyAlert": {
      "id": "http://jsonschema.net/pagerdutyAlert",
      "type": "boolean"
    },
    "message": {
      "id": "http://jsonschema.net/message",
      "type": "array",
      "items": [
        {
          "id": "http://jsonschema.net/message/0",
          "type": "object",
          "properties": {
            "type": {
              "id": "http://jsonschema.net/message/0/type",
              "type": "string"
            },
            "subject": {
              "id": "http://jsonschema.net/message/0/subject",
              "type": "string"
            },
            "body": {
              "id": "http://jsonschema.net/message/0/body",
              "type": "string"
            }
          }
        },
        {
          "id": "http://jsonschema.net/message/1",
          "type": "object",
          "properties": {
            "type": {
              "id": "http://jsonschema.net/message/1/type",
              "type": "string"
            },
            "subject": {
              "id": "http://jsonschema.net/message/1/subject",
              "type": "string"
            },
            "body": {
              "id": "http://jsonschema.net/message/1/body",
              "type": "string"
            }
          }
        }
      ]
    }
  },
  "required": [
    "list",
    "helpLink",
    "abortRun",
    "notify",
    "pagerdutyKey",
    "pagerdutyAlert",
    "message"
  ]
}
