{
  "$schema": "http://json-schema.org/draft-04/schema#",
  "type": "object",
  "properties": {
    "list": {
      "type": "object",
      "properties": {
        "source": {
          "type": "object",
          "properties": {
            "endpointName": {
              "type": "string",
              "id": "http://jsonschema.net/list/source/endpointName"
            },
            "path": {
              "type": "string",
              "id": "http://jsonschema.net/list/source/path"
            },
            "fileName": {
              "type": "string",
              "id": "http://jsonschema.net/list/source/fileName"
            },
            "feed_date": {
              "type": "string",
              "id": "http://jsonschema.net/list/source/feed_date"
            }
          },
          "id": "http://jsonschema.net/list/source",
          "required": [
            "endpointName",
            "path",
            "fileName",
            "feed_date"
          ]
        },
        "destination": {
          "type": "object",
          "properties": {
            "endpointName": {
              "type": "string",
              "id": "http://jsonschema.net/list/destination/endpointName"
            },
            "path": {
              "type": "string",
              "id": "http://jsonschema.net/list/destination/path"
            },
            "fileName": {
              "type": "string",
              "id": "http://jsonschema.net/list/destination/fileName"
            },
            "feed_date": {
              "type": "string",
              "id": "http://jsonschema.net/list/destination/feed_date"
            }
          },
          "id": "http://jsonschema.net/list/destination",
          "required": [
            "endpointName",
            "path",
            "fileName",
            "feed_date"
          ]
        },
        "delimiter": {
          "type": "string",
          "id": "http://jsonschema.net/list/delimiter"
        },
        "qouteCharacter": {
          "type": "string",
          "id": "http://jsonschema.net/list/qouteCharacter"
        },
        "skipLines": {
          "type": "string",
          "id": "http://jsonschema.net/list/skipLines"
        },
        "multipleXlsxSheet": {
          "type": "boolean",
          "id": "http://jsonschema.net/list/multipleXlsxSheet"
        }
      },
      "id": "http://jsonschema.net/list",
      "required": [
        "source",
        "destination",
        "delimiter",
        "qouteCharacter",
        "skipLines"
      ]
    },
    "pagerdutyAlert": {
      "type": "boolean",
      "id": "http://jsonschema.net/pagerdutyAlert"
    },
    "pagerdutyKey": {
      "type": "string",
      "id": "http://jsonschema.net/pagerdutyKey"
    },
    "helpLink": {
      "type": "string",
      "id": "http://jsonschema.net/helpLink"
    },
    "abortRun": {
      "type": "boolean",
      "id": "http://jsonschema.net/abortRun"
    },
    "notify": {
      "type": "string",
      "id": "http://jsonschema.net/notify"
    },
    "message": {
      "type": "array",
      "items": {
        "type": "object",
        "properties": {
          "type": {
            "type": "string",
            "id": "http://jsonschema.net/message/1/type"
          },
          "subject": {
            "type": "string",
            "id": "http://jsonschema.net/message/1/subject"
          },
          "body": {
            "type": "string",
            "id": "http://jsonschema.net/message/1/body"
          }
        },
        "id": "http://jsonschema.net/message/1",
        "required": [
          "type",
          "subject",
          "body"
        ]
      },
      "id": "http://jsonschema.net/message"
    }
  },
  "id": "http://jsonschema.net",
  "required": [
    "list",
    "pagerdutyAlert",
    "pagerdutyKey",
    "helpLink",
    "abortRun",
    "notify",
    "message"
  ]
}