{
  "$schema": "http://json-schema.org/draft-04/schema#",
  "id": "http://jsonschema.net",
  "type": "object",
  "properties": {
    "source": {
      "id": "http://jsonschema.net/source",
      "type": "array",
      "items": {
        "id": "http://jsonschema.net/source/0",
        "type": "object",
        "properties": {
          "endpointName": {
            "id": "http://jsonschema.net/source/0/endpointName",
            "type": "string"
          },
          "location": {
            "id": "http://jsonschema.net/source/0/location",
            "type": "string"
          },
          "filename": {
            "id": "http://jsonschema.net/source/0/filename",
            "type": "string"
          },
          "feed_date": {
            "id": "http://jsonschema.net/source/0/feed_date",
            "type": "string"
          }
        },
        "required": [
          "endpointName",
          "location",
          "filename",
          "feed_date"
        ]
      },
      "required": [
        "0"
      ]
    },
    "apiKey": {
      "id": "http://jsonschema.net/apiKey",
      "type": "string"
    },
    "reciepientsList": {
      "id": "http://jsonschema.net/reciepientsList",
      "type": "string"
    },
    "listId": {
      "id": "http://jsonschema.net/listId",
      "type": "string"
    },
    "pagerdutyAlert": {
      "id": "http://jsonschema.net/pagerdutyAlert",
      "type": "boolean"
    },
    "pagerdutyKey": {
      "id": "http://jsonschema.net/pagerdutyKey",
      "type": "string"
    },
    "helpLink": {
      "id": "http://jsonschema.net/helpLink",
      "type": "string"
    },
    "abortRun": {
      "id": "http://jsonschema.net/abortRun",
      "type": "boolean"
    },
    "notify": {
      "id": "http://jsonschema.net/notify",
      "type": "string"
    },
    "subject": {
      "id": "http://jsonschema.net/subject",
      "type": "string"
    },
    "body": {
      "id": "http://jsonschema.net/body",
      "type": "string"
    },
    "message": {
      "id": "http://jsonschema.net/message",
      "type": "array",
      "items": [
        {
          "id": "http://jsonschema.net/message/0",
          "type": "object",
          "properties": {
            "type": {
              "id": "http://jsonschema.net/message/0/type",
              "type": "string"
            },
            "subject": {
              "id": "http://jsonschema.net/message/0/subject",
              "type": "string"
            },
            "body": {
              "id": "http://jsonschema.net/message/0/body",
              "type": "string"
            }
          }
        },
        {
          "id": "http://jsonschema.net/message/1",
          "type": "object",
          "properties": {
            "type": {
              "id": "http://jsonschema.net/message/1/type",
              "type": "string"
            },
            "subject": {
              "id": "http://jsonschema.net/message/1/subject",
              "type": "string"
            },
            "body": {
              "id": "http://jsonschema.net/message/1/body",
              "type": "string"
            }
          }
        }
      ]
    }
  },
  "required": [
    "source",
    "apiKey",
    "reciepientsList",
    "listId",
    "pagerdutyAlert",
    "pagerdutyKey",
    "helpLink",
    "abortRun",
    "notify",
    "subject",
    "body",
    "message"
  ]
}