{
  "$schema": "http://json-schema.org/draft-04/schema#",
  "id": "http://jsonschema.net",
  "type": "object",
  "properties": {
    "list": {
      "id": "http://jsonschema.net/list",
      "type": "object",
      "properties": {
        "source": {
          "id": "http://jsonschema.net/list/source",
          "type": "object",
          "properties": {
            "endpointName": {
              "id": "http://jsonschema.net/list/source/endpointName",
              "type": "string"
            },
            "path": {
              "id": "http://jsonschema.net/list/source/path",
              "type": "string"
            },
            "fileName": {
              "id": "http://jsonschema.net/list/source/fileName",
              "type": "string"
            },
            "feed_date": {
              "id": "http://jsonschema.net/list/source/feed_date",
              "type": "string"
            }
          },
          "required": [
            "endpointName",
            "path",
            "fileName",
            "feed_date"
          ]
        },
        "outputFileDestination": {
          "id": "http://jsonschema.net/list/outputFileDestination",
          "type": "object",
          "properties": {
            "endpointName": {
              "id": "http://jsonschema.net/list/outputFileDestination/endpointName",
              "type": "string"
            },
            "path": {
              "id": "http://jsonschema.net/list/outputFileDestination/path",
              "type": "string"
            },
            "fileName": {
              "id": "http://jsonschema.net/list/outputFileDestination/fileName",
              "type": "string"
            },
            "feed_date": {
              "id": "http://jsonschema.net/list/outputFileDestination/feed_date",
              "type": "string"
            }
          }
        },
        "reportFileDestination": {
          "id": "http://jsonschema.net/list/reportFileDestination",
          "type": "object",
          "properties": {
            "endpointName": {
              "id": "http://jsonschema.net/list/reportFileDestination/endpointName",
              "type": "string"
            },
            "path": {
              "id": "http://jsonschema.net/list/reportFileDestination/path",
              "type": "string"
            },
            "fileName": {
              "id": "http://jsonschema.net/list/reportFileDestination/fileName",
              "type": "string"
            },
            "feed_date": {
              "id": "http://jsonschema.net/list/reportFileDestination/feed_date",
              "type": "string"
            }
          }
        }
      },
      "required": [
        "source",
        "outputFileDestination",
        "reportFileDestination"
      ]
    },
    "pagerdutyAlert": {
      "id": "http://jsonschema.net/pagerdutyAlert",
      "type": "boolean"
    },
    "pagerdutyKey": {
      "id": "http://jsonschema.net/pagerdutyKey",
      "type": "string"
    },
    "helpLink": {
      "id": "http://jsonschema.net/helpLink",
      "type": "string"
    },
    "abortRun": {
      "id": "http://jsonschema.net/abortRun",
      "type": "boolean"
    },
    "notify": {
      "id": "http://jsonschema.net/notify",
      "type": "string"
    },
    "message": {
      "id": "http://jsonschema.net/message",
      "type": "array",
      "items": [
        {
          "id": "http://jsonschema.net/message/0",
          "type": "object",
          "properties": {
            "type": {
              "id": "http://jsonschema.net/message/0/type",
              "type": "string"
            },
            "subject": {
              "id": "http://jsonschema.net/message/0/subject",
              "type": "string"
            },
            "body": {
              "id": "http://jsonschema.net/message/0/body",
              "type": "string"
            }
          }
        },
        {
          "id": "http://jsonschema.net/message/1",
          "type": "object",
          "properties": {
            "type": {
              "id": "http://jsonschema.net/message/1/type",
              "type": "string"
            },
            "subject": {
              "id": "http://jsonschema.net/message/1/subject",
              "type": "string"
            },
            "body": {
              "id": "http://jsonschema.net/message/1/body",
              "type": "string"
            }
          }
        }
      ]
    }
  },
  "required": [
    "list",
    "pagerdutyAlert",
    "pagerdutyKey",
    "helpLink",
    "abortRun",
    "notify",
    "message"
  ]
}