{
  "$schema": "http://json-schema.org/draft-04/schema#",
  "id": "http://jsonschema.net",
  "type": "object",
  "properties": {
    "scriptPath": {
      "id": "http://jsonschema.net/scriptPath",
      "type": "string"
    },
    "arguments": {
      "id": "http://jsonschema.net/arguments",
      "type": "array",
      "items": [
        {
          "id": "http://jsonschema.net/arguments/0",
          "type": "object",
          "properties": {
            "argument": {
              "id": "http://jsonschema.net/arguments/0/argument",
              "type": "string"
            }
          }
        },
        {
          "id": "http://jsonschema.net/arguments/1",
          "type": "object",
          "properties": {
            "argument": {
              "id": "http://jsonschema.net/arguments/1/argument",
              "type": "string"
            }
          }
        },
        {
          "id": "http://jsonschema.net/arguments/2",
          "type": "object",
          "properties": {
            "argument": {
              "id": "http://jsonschema.net/arguments/2/argument",
              "type": "string"
            }
          }
        }
      ]
    },
    "abortRun": {
      "id": "http://jsonschema.net/abortRun",
      "type": "boolean"
    },
    "notify": {
      "id": "http://jsonschema.net/notify",
      "type": "string"
    },
    "pagerdutyAlert": {
      "id": "http://jsonschema.net/pagerdutyAlert",
      "type": "boolean"
    },
    "message": {
      "id": "http://jsonschema.net/message",
      "type": "array",
      "items": [
        {
          "id": "http://jsonschema.net/message/0",
          "type": "object",
          "properties": {
            "type": {
              "id": "http://jsonschema.net/message/0/type",
              "type": "string"
            },
            "subject": {
              "id": "http://jsonschema.net/message/0/subject",
              "type": "string"
            },
            "body": {
              "id": "http://jsonschema.net/message/0/body",
              "type": "string"
            }
          }
        },
        {
          "id": "http://jsonschema.net/message/1",
          "type": "object",
          "properties": {
            "type": {
              "id": "http://jsonschema.net/message/1/type",
              "type": "string"
            },
            "subject": {
              "id": "http://jsonschema.net/message/1/subject",
              "type": "string"
            },
            "body": {
              "id": "http://jsonschema.net/message/1/body",
              "type": "string"
            }
          }
        }
      ]
    }
  },
  "required": [
    "scriptPath",
    "arguments",
    "abortRun",
    "notify",
    "pagerdutyAlert",
    "message"
  ]
}
