{
  "$schema": "http://json-schema.org/draft-04/schema#",
  "id": "http://jsonschema.net",
  "type": "object",
  "properties": {
    "endpointName": {
      "id": "http://jsonschema.net/endpointName",
      "type": "string"
    },
    "recipientList": {
      "id": "http://jsonschema.net/recipientList",
      "type": "string"
    },
    "validatorName": {
      "id": "http://jsonschema.net/validatorName",
      "type": "string"
    },
    "validatorType": {
      "id": "http://jsonschema.net/validatorType",
      "type": "string"
    },
    "tableName": {
      "id": "http://jsonschema.net/tableName",
      "type": "string"
    },
    "columnName": {
      "id": "http://jsonschema.net/columnName",
      "type": "string"
    },
    "primaryKey": {
      "id": "http://jsonschema.net/primaryKey",
      "type": "string"
    },
    "alertRange": {
      "id": "http://jsonschema.net/alertRange",
      "type": "string"
    },
    "destination": {
      "id": "http://jsonschema.net/destination",
      "type": "object",
      "properties": {
        "endpointName": {
          "id": "http://jsonschema.net/destination/endpointName",
          "type": "string"
        },
        "path": {
          "id": "http://jsonschema.net/destination/path",
          "type": "string"
        },
        "fileName": {
          "id": "http://jsonschema.net/destination/fileName",
          "type": "string"
        },
        "feed_date": {
          "id": "http://jsonschema.net/destination/feed_date",
          "type": "string"
        }
      }
    },
    "helpLink": {
      "id": "http://jsonschema.net/helpLink",
      "type": "string"
    },
    "abortRun": {
      "id": "http://jsonschema.net/abortRun",
      "type": "boolean"
    },
    "notify": {
      "id": "http://jsonschema.net/notify",
      "type": "string"
    },
    "pagerdutyKey": {
      "id": "http://jsonschema.net/pagerdutyKey",
      "type": "string"
    },
    "pagerdutyAlert": {
      "id": "http://jsonschema.net/pagerdutyAlert",
      "type": "boolean"
    },
    "message": {
      "id": "http://jsonschema.net/message",
      "type": "array",
      "items": [
        {
          "id": "http://jsonschema.net/message/0",
          "type": "object",
          "properties": {
            "type": {
              "id": "http://jsonschema.net/message/0/type",
              "type": "string"
            },
            "subject": {
              "id": "http://jsonschema.net/message/0/subject",
              "type": "string"
            },
            "body": {
              "id": "http://jsonschema.net/message/0/body",
              "type": "string"
            }
          }
        },
        {
          "id": "http://jsonschema.net/message/1",
          "type": "object",
          "properties": {
            "type": {
              "id": "http://jsonschema.net/message/1/type",
              "type": "string"
            },
            "subject": {
              "id": "http://jsonschema.net/message/1/subject",
              "type": "string"
            },
            "body": {
              "id": "http://jsonschema.net/message/1/body",
              "type": "string"
            }
          }
        },
        {
          "id": "http://jsonschema.net/message/2",
          "type": "object",
          "properties": {
            "type": {
              "id": "http://jsonschema.net/message/2/type",
              "type": "string"
            },
            "subject": {
              "id": "http://jsonschema.net/message/2/subject",
              "type": "string"
            },
            "body": {
              "id": "http://jsonschema.net/message/2/body",
              "type": "string"
            }
          }
        }
      ]
    }
  },
  "required": [
    "endpointName",
    "recipientList",
    "validatorName",
    "validatorType",
    "tableName",
    "columnName",
    "primaryKey",
    "alertRange",
    "destination",
    "helpLink",
    "abortRun",
    "notify",
    "pagerdutyKey",
    "pagerdutyAlert",
    "message"
  ]
}