{
  "client": "internal_test_automation",
  "jobPrefix": "etl",
  "feeds": [
   "feeds/custom-Commerce_tab_gz.json",
   "feeds/custom-Traffic.json",
   "feeds/custom-Commerce.json"
      ],
  "tables": [
    "tables/custom-base-performance-order_tab_gz.json"
   ],
  "dataplatformDest": {
    "host": "azkaban-db-prod-oregon.ckr6oyyfiopw.us-west-2.rds.amazonaws.com",
    "db": "dpstats",
    "user": "azkaban",
    "pass": "azkaban123"
  },
  "emrClusterProperties": {
    "clusterSize": "1",
    "emrMachineTags": {
      "env": "qa",
      "client": "internal",
      "own": "qa-team"
    }
  },
  "endpoints": [
    {
      "name": "sftp",
      "type": "sftp",
      "properties": {
        "host": "sftp://sftpqa3.qa123.rboomerang.com",
        "user": "vijay",
        "pass": "secret"
      }
    },
    {
      "name": "redshift",
      "type": "redshift",
      "properties": {
        "host" : "${{bc_redshift_host}}",
        "user" : "${{bc_redshift_user}}",
        "pass" : "${{bc_redshift_pass}}",
        "db" : "${{bc_redshift_db}}"
      }
    },
    {
      "name": "mysqlsource",
      "type": "mysql",
      "properties": {
        "host": "qstae.czx5r0zoummp.us-east-1.rds.amazonaws.com",
        "user": "qstaedba",
        "pass": "qual1tydba",
        "db": "testing"
      }
    },
    {
      "name": "s3",
      "type": "s3",
      "properties": {
        "bucket_name": "etl-backup-all-clients",
        "bucket_region": "us-west-2"
      }
    }
  ],
  
  "logglyKey": "",
  "pagerdutyKey": null,
  "skipValidation": true,
  "s3Bucket": "data-platform-insights",
  "emrClientTag": "internal",
  "hadoopJobsStartPushmonTrigger" : "${{pushmon_start}}",
  "hadoopJobsStopPushmonTrigger" : "${{pushmon_end}}",
  "version": 0,
  "reportRecipients": [
    "akshay@boomerangcommerce.com"
  ]
}
