{
	"client": "UsAutoParts",
	"ppi":
	{
		"scraperSiteName":"UsAutoParts",
		"clientUrlPattern":""
	},
	"canvas": 
	{
		"vendorName": "USAP",
		"vendorWebsite": "",
		"emailDomain": ""
	},

	"po": 
	{
		"transport": 
		{
			"host": "sftp://sftp.usautoparts.rboomerang.com",
			"user": "usautoparts-sftp-user",
			"pass": "U4\\!p@ts4Q"
		},

		"rds": 
		{
			"host": "",
			"username": "",
			"password": ""
		}
	},

	"referenceFile": 
	{
		"data_dictionary": "brand,gl_l1_name",
		"headers": "Date,SKU,Zone,Title,Brand,BPG,Department,Class,Subclass,Cost,Current Price,Suggested Price,Price Changed flag,On Promo Flag,Strategy,O'Reilly Price,Autozone Price,Relationship,StopProcessing",
		"mapping": "date,sku,channelId,title,brand,merchL1Name,merchL2Name,merchL3Name,merchL4Name,poCost,price,suggestedPriceStr,priceChanged,onPromo,strategyName,comp1Price,comp2Price,relationshipName,stopProcessing",
		"default": "sku,channelId,price,suggestedPriceStr,strategyName,stopProcessing,priceChanged,relationshipName"
	},

	"outputfile": 
	{
		"data_dictionary": "",
		"headers": "SKU, Price, Suggested Price, Channel Id",
		"mapping": "sku,price,suggestedPriceStr,channelId",
		"default": "sku,price,suggestedPriceStr,channelId"
	},

	"outputProcessing": 
	{
		"doPostProcessing_flag": "true",
		"flow_name": "output-processing-end"
	},

	"common": 
	{
		"redshift": 
		{
			"url": "",
			"host":"insights-usautoparts.cnjeis9czdgg.us-west-2.redshift.amazonaws.com:5439",	
			"username": "dp_write_only",
			"password": "udInZkvcl4QqpYz"
		}
	}
}
