{
  "$schema": "http://json-schema.org/draft-04/schema#",
  "id": "/",
  "type": "object",
  "properties": {
    "type": {
      "id": "type",
      "type": "string",
      "required": true
    },
    "command": {
      "id": "command",
      "type": "string",
      "required": true
    }
  },
  "additionalProperties": false,
  "required": [
    "type",
    "command"
  ]
}