{
  "id": "feed_client_sku_mapping",
  "source": {
    "path": "matching.client_sku_mapping",
    "endpoint": "redshift_1",
    "args": {
        "whereCriteria": null
        }
  },
  "destination": "feed/${{ID}}",
  "type": "CSV",
  "columnCount": 8,
  "failOnColumnCountMismatch": "true",
  "skipLines": 0,
  "compression": "",
  "nullFormat": "null",
  "delimiter": {
    "field": "\t",
    "escaped": "\\",
    "line": "\n",
    "enclosed": "\""
  },
  "columns": [
    {
      "name": "sku",
      "type": "STRING"
    },
    {
      "name": "parent_sku",
      "type": "STRING"
    },
    {
      "name": "boomerang_sku",
      "type": "STRING"
    },
    {
      "name": "client_name",
      "type": "STRING"
    },
    {
      "name": "url",
      "type": "STRING"
    },
    {
      "name": "variation_json",
      "type": "STRING"
    },
    {
      "name": "client_color",
      "type": "STRING"
    },
    {
      "name": "client_size",
      "type": "STRING"
    }
  ]
}
