{
  "id": "custom_performance",
  "destination": "table/${{ID}}",
  "hiveConfig": {
    "bucketSortKey": "sku",
    "bucketCount": 10
  },
  "warningPercLimit": 80,
  "columns": [
    {
      "name": "sku",
      "source": {
        "expr": "sales_performance.KSN_ID",
        "type": "STRING"
      }
    },
    {
      "name": "channel_id",
      "source": {
        "expr": "sales_performance.LOCN_NBR",
        "type": "INT"
      }
    },
    {
      "name": "transaction_date",
      "source": {
        "expr": "concat(sales_performance.DAY_DT,' 00:00:00')",
        "type": "TIMESTAMP"
      }
    },
    {
      "name": "fiscal_wk_nbr",
      "source": {
        "expr": "sales_performance.FISC_WK_NBR",
        "type": "INT"
      }
    },
    {
      "name": "cust_interaction_id",
      "source": {
        "expr": "sales_performance.CUSTOMER_INTERACTION_ID",
        "type": "STRING"
      }
    },
    {
      "name": "str_format",
      "source": {
        "expr": "sales_performance.STR_FORMAT",
        "type": "STRING"
      }
    },
    {
      "name": "item_id",
      "source": {
        "expr": "sales_performance.ITEM_ID",
        "type": "STRING"
      }
    },
    {
      "name": "type_cd",
      "source": {
        "expr": "sales_performance.TYPE_CD",
        "type": "STRING"
      }
    },
    {
      "name": "cost_amt",
      "source": {
        "expr": "sales_performance.COST_AMT",
        "type": "DOUBLE"
      }
    },
    {
      "name": "sell_type_cd",
      "source": {
        "expr": "sales_performance.SELL_TYPE_CD",
        "type": "STRING"
      }
    },
    {
      "name": "zip_cd",
      "source": {
        "expr": "sales_performance.ZIP_CD",
        "type": "STRING"
      }
    },
    {
      "name": "reg_price",
      "source": {
        "expr": "sales_performance.REG_PRICE",
        "type": "DOUBLE"
      }
    },
    {
      "name": "price",
      "source": {
        "expr": "sales_performance.PRICE",
        "type": "DOUBLE"
      }
    },
    {
      "name": "md_amt",
      "source": {
        "expr": "sales_performance.MD_AMT",
        "type": "DOUBLE"
      }
    },
    {
      "name": "sum_sywr",
      "source": {
        "expr": "sales_performance.SUM_SYWR",
        "type": "DOUBLE"
      }
    },
    {
      "name": "feed_date",
      "source": {
        "expr" : "from_unixtime(unix_timestamp(substr('${hiveconf:FEED_DATE}',1,8), 'yyyyMMdd')-1*24*60*60)",
        "type": "TIMESTAMP"
      }
    },
    {
      "name": "creation_date",
      "source": {
        "expr": "concat(to_date(FROM_UNIXTIME( UNIX_TIMESTAMP() )),' 00:00:00')",
        "type": "TIMESTAMP"
      }
    }
  ],
  "validations": {
    "row": [],
    "table": []
  },
  "tableSourcesConfig": {
    "feedSource": [
      {
        "name": "sales_performance",
        "column": ""
      }
    ],
    "dedup": {
        "columns": "sku,transaction_date,channel_id,feed_date",
        "order": null
    },
    "whereClause": "sku is not NULL and transaction_date is not NULL and channel_id is not NULL and feed_date is not NULL"
  },
  "targets": [
    {
      "endpoint": "redshift",
      "args": {
        "table": "${{schema_client}}.custom_performance",
        "target_pk_columns" : "sku,channel_id,transaction_date,feed_date",
        "tableTransferTemplate": "Insert into <conf.table> select * from <conf.tempTable>;  drop table if exists <conf.tempTable> ;"
      }
    }
  ]
}