{
  "configuration": [
    "Canvas",
    "Ppi"
  ],
  "clientLogoName": "f4632a5b7ffc0f97a58d651973ae6518bc229.png",
  "clientName": "Saks Fifth Avenue",
  "client": "saksfifthavenue",
  "clientWebsite": "saksfifthavenue.com",
  "clientEmailDomain": "saksfifthavenue.com",
  "clientRedshiftHost": "saksfifthavenue.cnjeis9czdgg.us-west-2.redshift.amazonaws.com",
  "clientRedshiftDataBase": "insights",
  "clientRedshiftUser": "dp_write_only",
  "clientRedshiftPassword": "gb4qbEQvUixIcGo",
  "ppi": {
    "clientScraperSite": "site=saksfifthavenue",
    "clientScraperURL": "www.saksfifthavenue.com/p/<REPLACE-ME>",
    "clientRedshiftPpiUser": "ppi_write_only",
    "clientRedshiftPpiUserPass": "p6ZQSwDP79xGyfY"
  },
  "po": {
    "clientRedshiftPOUser": "po_write_only",
    "clientRedshiftPOUserPass": "ppiPASS",
    "sftpHost": "sftp://sftpqa.sample-test.rboomerang.com",
    "sftpUser": "test",
    "sftpPass": "secret"
  }
}
