{
	"azkaban":
	{
		"azkaban_name":"azkaban1",
		"schedule_list":
		[
			{
				"project_name": "akshay_kohls",
				"flow_name": "pre-etl-end",
				"start_date": "",
				"repeat_every": "",
				"time":
				{
					"time_zone":"PDT",
					"minute": "00",
					"hour": "06",
					"am_or_pm": "am"
				}
			}
		]
	}
}
