{
  "id": "kohls_base_catalog",
  "destination": "clients/kohls/output/base_catalog/${{ID}}/",
  "hiveConfig": {
    "bucketSortKey": "sku",
    "bucketCount": 10
  },
  "warningPercLimit": 80,
  "columns": [
    {
      "name": "sku",
      "source": {
        "expr": "SKU",
        "type": "STRING"
      }
    },
    {
      "name": "channel_id",
      "source": {
        "expr": "0",
        "type": "INT"
      }
    },
    {
      "name": "title",
      "source": {
        "expr": "Title",
        "type": "STRING"
      }
    },
    {
      "name": "product_url",
      "source": {
        "expr": "Product_URL",
        "type": "STRING"
      }
    }
  ],
  "validations": {
    "row": [],
    "table": []
  },
  "tableSourcesConfig": {
    "feedSource": [
      {
        "name": "kohls_base_catalog_feed"
      }
    ],
    "whereClause": "sku is not NULL and channel_id is not NULL",
    "groupBy": null,
    "dedup": {
      "columns": "sku",
      "order": null
    }
  },
  "targets": [
    {
      "endpoint": "redshift",
      "args": {
        "table": "public.akshay_boomerangcatalog_multi1",
        "target_pk_columns": "sku,channel_id",
        "tableTransferTemplate": "Insert into <conf.table> select * from <conf.tempTable>;  drop table if exists <conf.tempTable> ;"
      }
    }
  ]
}