	{
	"list": 
	[
		{
			"endpoint": "redshift",
			"alertEmailId": "radha.bhan@boomerangcommerce.com,",
			"filename": "kmart/scripts/alerts/is_tables_success.csv",
			"skuListing":false
		}
		
	],

	"helpLink": "",
	"abortRun": false,
	"notify": "warn",
	"pagerdutyKey": "${{pagerduty_key}}",
	"pagerdutyAlert": true,
	 "message": [
    {
      
      "type": "error",
      "subject": "[Error]  Duplicate Check failed",
      "body": "Failed to execute Duplicate Check \n"
    },
    {
      
      "type": "warn",
      "subject": "[Warning]  Duplicates Found",
      "body": "Duplicate Check Execution Complete. \n"
    },
    {
      "type": "success",
      "subject": "[Success] Duplicate Check",
      "body": "Hey Team, \n\nSuccess in executing Duplicate Check."
    }
  ]
}