{
	"azkaban": 
	{
		"azkaban_name":"azkaban1",
		"schedule_list": 
		[
			{
				"project_name": "kmart",
				"flow_name": "end-to-end-flows_kmart",
				"start_date": "01/11/2016",
				"repeat_every": "1d",
				"time": 
				{
					"time_zone":"UTC",
					"minute": "00",
					"hour": "02",
					"am_or_pm": "am"
				}
			},
			{
				"project_name": "kmart",
				"flow_name": "output-processing-flows_kmart",
				"start_date": "01/11/2016",
				"repeat_every": "1d",
				"time": 
				{
					"time_zone":"UTC",
					"minute": "00",
					"hour": "10",
					"am_or_pm": "am"
				}
			},
			{
				"project_name": "kmart",
				"flow_name": "dd-flows_kmart",
				"start_date": "04/20/2016",
				"repeat_every": "1d",
				"time": 
				{
					"time_zone":"UTC",
					"minute": "00",
					"hour": "10",
					"am_or_pm": "am"
				}
			},
			{
				"project_name": "kmart",
				"flow_name": "po-flows_kmart",
				"start_date": "04/20/2016",
				"repeat_every": "1d",
				"time": 
				{
					"time_zone":"UTC",
					"minute": "00",
					"hour": "10",
					"am_or_pm": "am"
				}
			},
			{
				"project_name": "kmart",
				"flow_name": "pre-etl-flows_kmart",
				"start_date": "04/20/2016",
				"repeat_every": "1d",
				"time": 
				{
					"time_zone":"UTC",
					"minute": "00",
					"hour": "10",
					"am_or_pm": "am"
				}
			}
		]
	}
}