{
  "id": "custom_inventory",
  "source": {
    "path": "/prod/Inventory_${{FEED_DATE}}.csv",
    "endpoint": "sftp"
  },
  "destination": "feed/${{ID}}",
  "type": "CSV",
  "columnCount": 7,
  "failOnColumnCountMismatch": "true",
  "skipLines": 1,
  "compression": "",
  "nullFormat": "null",
  "delimiter": {
    "field": ",",
    "escaped": "\\",
    "line": "\n"
  },
  "columns": [
    {
      "name": "SKU",
      "position": 1,
      "type": "STRING"
    },
    {
      "name": "ON_HAND",
      "position": 2,
      "type": "STRING"
    },
    {
      "name": "ON_HAND_AMT",
      "position": 3,
      "type": "STRING"
    },
    {
      "name": "ON_ORDER",
      "position": 4,
      "type": "STRING"
    },
    {
      "name": "ON_ORDER_AMT",
      "position": 5,
      "type": "STRING"
    },
    {
      "name": "UPC",
      "position": 6,
      "type": "STRING"
    },
    {
      "name": "ATP",
      "position": 7,
      "type": "STRING"
    }
  ],
  "whereClause": null
}