{
	"client": "client_name",
	"mailId":"kishan@boomerangcommerce.com",
	"generateJsonsAt":"ETLCreationFiles/kishan",
	"input": 
	[
		{
			"feedName": "test_feed",
			"endPoint": "sftp_2",
			"filePath": "/prod/files/wpi_20160208.csv",
			"fileType": "csv",
			"delimiter": ","
		}
	],

	"output": 
	[
		{
			"endPoint": "redshift",
			"databaseName": "insights",
			"schemaName": "base",
			"tables": 
			[
				"performance_order",
				"item_prices"
			]
		}
	]
}