{
  "id": "store_inventory_feed",
  "source": {
        "path": "s3://boomerang-qa-data/kmart_test_data/store_inventory_feed", 
        "endpoint": "s3"
    },
  "destination": "feed/${{ID}}",
  "type": "CSV",
  "columnCount": 5,
  "failOnColumnCountMismatch": "true",
  "skipLines": 0,
  "nullFormat": "null",
  "delimiter": {
    "field": "|",
    "escaped": "\\",
    "line": "\n"
  },
  "columns": [
    {
      "name": "LOCN_NBR",
      "position": 1,
      "type": "STRING"
    },
    {
      "name": "KSN_ID",
      "position": 2,
      "type": "STRING"
    },
    {
      "name": "inventory_type_cd",
      "position": 3,
      "type": "STRING"
    },
    {
      "name": "Qty",
      "position": 4,
      "type": "STRING"
    },
    {
      "name": "inventory_date",
      "position": 5,
      "type": "STRING"
    }
  ],
  "whereClause": null
}