{
  "id": "sku_info_temp1",
  "destination": "table/${{ID}}",
  "hiveConfig": {
    "bucketSortKey": "client_sku",
    "bucketCount": 10
  },
  "warningPercLimit": 80,
  "columns": [
    {
      "name": "client_sku",
      "source": {
        "expr": "pricing_adjusted_cm.client_sku",
        "type": "STRING"
      }
    },
    {
      "name": "client_prod_title",
      "source": {
        "expr": "pricing_adjusted_cm.client_title",
        "type": "STRING"
      }
    },
    {
      "name": "client_prod_url",
      "source": {
        "expr": "pricing_adjusted_cm.client_url",
        "type": "STRING"
      }
    },
    {
      "name": "client_prod_image",
      "source": {
        "expr": "NULL",
        "type": "STRING"
      }
    },
    {
      "name": "client_prod_upc",
      "source": {
        "expr": "pricing_adjusted_cm.client_upc",
        "type": "STRING"
      }
    },
    {
      "name": "client_prod_category1",
      "source": {
        "expr": "pricing_adjusted_cm.client_category",
        "type": "STRING"
      }
    },
    {
      "name": "client_prod_category2",
      "source": {
        "expr": "pricing_adjusted_cm.client_subcategory",
        "type": "STRING"
      }
    },
    {
      "name": "client_prod_category3",
      "source": {
        "expr": "NULL",
        "type": "STRING"
      }
    },
    {
      "name": "is_marketplace",
      "source": {
        "expr": "NULL",
        "type": "INT"
      }
    },
    {
      "name": "client_prod_brand",
      "source": {
        "expr": "pricing_adjusted_cm.client_brand",
        "type": "STRING"
      }
    },
    {
      "name": "client_prod_price",
      "source": {
        "expr": "pricing_adjusted_cm.client_price",
        "type": "DOUBLE"
      }
    },
    {
      "name": "comp_sku",
      "source": {
        "expr": "pricing_adjusted_cm.comp_sku",
        "type": "STRING"
      }
    },
    {
      "name": "comp_name",
      "source": {
        "expr": "pricing_adjusted_cm.comp_name",
        "type": "STRING"
      }
    },
    {
      "name": "comp_url",
      "source": {
        "expr": "pricing_adjusted_cm.comp_url",
        "type": "STRING"
      }
    },
    {
      "name": "comp_is_addon",
      "source": {
        "expr": "pricing_adjusted_cm.comp_is_add_on",
        "type": "STRING"
      }
    },
    {
      "name": "comp_prod_reviews",
      "source": {
        "expr": "pricing_adjusted_cm.comp_pdt_reviews",
        "type": "BIGINT"
      }
    },
    {
      "name": "comp_prod_avg_rating",
      "source": {
        "expr": "pricing_adjusted_cm.comp_pdt_rating",
        "type": "DOUBLE"
      }
    },
    {
      "name": "comp_offer_price",
      "source": {
        "expr": "pricing_adjusted_cm.comp_offer_price",
        "type": "DOUBLE"
      }
    },
    {
      "name": "comp_shipping_price",
      "source": {
        "expr": "pricing_adjusted_cm.comp_shipping_price",
        "type": "DOUBLE"
      }
    },
    {
      "name": "comp_in_stock",
      "source": {
        "expr": "pricing_adjusted_cm.comp_in_stock",
        "type": "STRING"
      }
    },
    {
      "name": "comp_seller_name",
      "source": {
        "expr": "pricing_adjusted_cm.comp_seller_name",
        "type": "STRING"
      }
    },
    {
      "name": "comp_status",
      "source": {
        "expr": "pricing_adjusted_cm.comp_status",
        "type": "STRING"
      }
    },
    {
      "name": "views",
      "source": {
        "expr": "NULL",
        "type": "DOUBLE"
      }
    },
    {
      "name": "scrape_date",
      "source": {
        "expr": "pricing_adjusted_cm.comp_scrape_date",
        "type": "TIMESTAMP"
      }
    },
    {
      "name": "version_id",
      "source": {
        "expr": "NULL",
        "type": "INT"
      }
    },
    {
      "name": "creation_date",
      "source": {
        "expr": "concat(to_date(FROM_UNIXTIME( UNIX_TIMESTAMP() )),' 00:00:00')",
        "type": "TIMESTAMP"
      }
    },
    {
      "name": "revenue_this_week",
      "source": {
        "expr": "NULL",
        "type": "DOUBLE"
      }
    },
    {
      "name": "margin_this_week",
      "source": {
        "expr": "NULL",
        "type": "DOUBLE"
      }
    },
    {
      "name": "units_this_week",
      "source": {
        "expr": "NULL",
        "type": "DOUBLE"
      }
    },
    {
      "name": "orders_this_week",
      "source": {
        "expr": "NULL",
        "type": "DOUBLE"
      }
    },
    {
      "name": "conversion_this_week",
      "source": {
        "expr": "NULL",
        "type": "DOUBLE"
      }
    },
    {
      "name": "views_this_week",
      "source": {
        "expr": "NULL",
        "type": "DOUBLE"
      }
    },
    {
      "name": "revenue_last_week",
      "source": {
        "expr": "NULL",
        "type": "DOUBLE"
      }
    },
    {
      "name": "margin_last_week",
      "source": {
        "expr": "NULL",
        "type": "DOUBLE"
      }
    },
    {
      "name": "units_last_week",
      "source": {
        "expr": "NULL",
        "type": "DOUBLE"
      }
    },
    {
      "name": "orders_last_week",
      "source": {
        "expr": "NULL",
        "type": "DOUBLE"
      }
    },
    {
      "name": "conversion_last_week",
      "source": {
        "expr": "NULL",
        "type": "DOUBLE"
      }
    },
    {
      "name": "views_last_week",
      "source": {
        "expr": "NULL",
        "type": "DOUBLE"
      }
    },
    {
      "name": "winning_strategy_this_week",
      "source": {
        "expr": "NULL",
        "type": "STRING"
      }
    },
    {
      "name": "winning_strategy_last_week",
      "source": {
        "expr": "NULL",
        "type": "STRING"
      }
    },
    {
      "name": "catalog_sku",
      "source": {
        "expr": "catalog_views.client_sku",
        "type": "TIMESTAMP"
      }
    }
  ],
  "validations": {
    "row": [],
    "table": []
  },
  "tableSourcesConfig": {
    "type": "join",
    "joinType": "left join",
    "feedSource": [
      {
        "name": "pricing_adjusted_cm",
        "column": "client_sku"
      },
      {
        "name": "catalog_views",
        "column": "client_sku"
      }
    ],
    "whereClause": "catalog_sku is NULL"
  },
  "isTempTable": true
}
