{
	"id": "usAutoParts_FACT_PERFORMANCE14",
	"source": 
	{
		"path": "/prod/input/fact_performance/USAP_FACT_PERFORMANCE_HISTORY_2014.txt.gz",
		"endpoint": "sftp"
	},

	"destination": "clients/usAutoParts/input/FACT_PERFORMANCE/${{ID}}",
	"type": "txt",
	"columnCount": 12,
	"failOnColumnCountMismatch": true,
	"skipLines": 1,
	"compression": "gz",
	"nullFormat": "null",
	"delimiter": 
	{
		"field": "|",
		"escaped": "\\",
		"line": "\n"
	},

	"columns": 
	[
		{
			"name": "product_id",
			"position": 1,
			"type": "STRING"
		},

		{
			"name": "order_date",
			"position": 2,
			"type": "STRING"
		},

		{
			"name": "channel_name",
			"position": 3,
			"type": "STRING"
		},

		{
			"name": "new_customer",
			"position": 4,
			"type": "STRING"
		},

		{
			"name": "orders",
			"position": 5,
			"type": "STRING"
		},

		{
			"name": "cost",
			"position": 6,
			"type": "STRING"
		},

		{
			"name": "shipping_cost",
			"position": 7,
			"type": "STRING"
		},

		{
			"name": "shipping_revenue",
			"position": 8,
			"type": "STRING"
		},

		{
			"name": "handling_revenue",
			"position": 9,
			"type": "STRING"
		},

		{
			"name": "variablecost",
			"position": 10,
			"type": "STRING"
		},

		{
			"name": "gross_units_sold",
			"position": 11,
			"type": "STRING"
		},

		{
			"name": "gross_revenue",
			"position": 12,
			"type": "STRING"
		}
	],

	"whereClause": null
}