{
	"id": "usAutoParts_ITEM_MASTER",
	"source": 
	{
		"path": "/prod/input/item_master/USAP_ITEM_MASTER_20161111.txt.gz",
		"endpoint": "sftp"
	},
    "hiveConfig": {
        "bucketSortKey": "product_id",
        "bucketCount": 10
      },
	"destination": "clients/usAutoParts/input/ITEM_MASTER/${{ID}}",
	"type": "txt",
	"columnCount": 51,
	"failOnColumnCountMismatch": true,
	"skipLines": 1,
	"compression": "gz",
	"nullFormat": "null",
	"delimiter": 
	{
		"field": "|",
		"escaped": "\\",
		"line": "\n"
	},

	"columns": 
	[
		{
			"name": "product_id",
			"position": 1,
			"type": "STRING"
		},

		{
			"name": "upc",
			"position": 2,
			"type": "STRING"
		},

		{
			"name": "sku_status",
			"position": 3,
			"type": "STRING"
		},

		{
			"name": "part_name",
			"position": 4,
			"type": "STRING"
		},

		{
			"name": "part_id",
			"position": 5,
			"type": "STRING"
		},

		{
			"name": "cgm_cat_name",
			"position": 6,
			"type": "STRING"
		},

		{
			"name": "cgm_cat_id",
			"position": 7,
			"type": "STRING"
		},

		{
			"name": "cgm_subcat",
			"position": 8,
			"type": "STRING"
		},

		{
			"name": "cgm_subcat_id",
			"position": 9,
			"type": "STRING"
		},

		{
			"name": "cgm_lob",
			"position": 10,
			"type": "STRING"
		},

		{
			"name": "brand_id",
			"position": 11,
			"type": "STRING"
		},

		{
			"name": "brand_name",
			"position": 12,
			"type": "STRING"
		},

		{
			"name": "part_model",
			"position": 13,
			"type": "STRING"
		},

		{
			"name": "year",
			"position": 14,
			"type": "STRING"
		},

		{
			"name": "make",
			"position": 15,
			"type": "STRING"
		},

		{
			"name": "model",
			"position": 16,
			"type": "STRING"
		},

		{
			"name": "submodel",
			"position": 17,
			"type": "STRING"
		},

		{
			"name": "engine_type",
			"position": 18,
			"type": "STRING"
		},

		{
			"name": "title",
			"position": 19,
			"type": "STRING"
		},

		{
			"name": "private_label_flag",
			"position": 20,
			"type": "STRING"
		},

		{
			"name": "team",
			"position": 21,
			"type": "STRING"
		},

		{
			"name": "team_id",
			"position": 22,
			"type": "STRING"
		},

		{
			"name": "map_price",
			"position": 23,
			"type": "DECIMAL(10,2)"
		},

		{
			"name": "sku_mover_type",
			"position": 24,
			"type": "STRING"
		},

		{
			"name": "regular_price",
			"position": 25,
			"type": "STRING"
		},

		{
			"name": "clearance_type",
			"position": 26,
			"type": "STRING"
		},

		{
			"name": "isworldpac",
			"position": 27,
			"type": "STRING"
		},

		{
			"name": "truck_freight",
			"position": 28,
			"type": "STRING"
		},

		{
			"name": "Ford_Patent",
			"position": 29,
			"type": "STRING"
		},

		{
			"name": "corecost",
			"position": 30,
			"type": "STRING"
		},

		{
			"name": "coreprice",
			"position": 31,
			"type": "STRING"
		},

		{
			"name": "pricingcost",
			"position": 32,
			"type": "STRING"
		},

		{
			"name": "fifo_cost",
			"position": 33,
			"type": "STRING"
		},

		{
			"name": "ds_shippingcost",
			"position": 34,
			"type": "STRING"
		},

		{
			"name": "ss_shippingcost",
			"position": 35,
			"type": "STRING"
		},

		{
			"name": "brand_type",
			"position": 36,
			"type": "STRING"
		},

		{
			"name": "map_type",
			"position": 37,
			"type": "STRING"
		},

		{
			"name": "rubix_vendor_name",
			"position": 38,
			"type": "STRING"
		},

		{
			"name": "rubix_cost",
			"position": 39,
			"type": "STRING"
		},

		{
			"name": "always_on",
			"position": 40,
			"type": "STRING"
		},

		{
			"name": "is_kill",
			"position": 41,
			"type": "STRING"
		},

		{
			"name": "is_active",
			"position": 42,
			"type": "STRING"
		},

		{
			"name": "parent_product_id",
			"position": 43,
			"type": "STRING"
		},

		{
			"name": "stockship_id",
			"position": 44,
			"type": "STRING"
		},

		{
			"name": "image_link",
			"position": 45,
			"type": "STRING"
		},

		{
			"name": "po_cost_price",
			"position": 46,
			"type": "STRING"
		},

		{
			"name": "shippingcost",
			"position": 47,
			"type": "STRING"
		},
		
		{
			"name": "sku",
			"position":48,
			"type": "STRING"
		},
		
		{
			"name": "kit",
			"position":49,
			"type": "STRING"
		},
		
		{
			"name": "iswarranty",
			"position":50,
			"type": "STRING"
		},
		
		{
			"name": "vendor_name",
			"position":51,
			"type": "STRING"
		}
		
	],

	"whereClause": null
}