{
	"id": "usAutoParts_SISTER_SKU",
	"source": 
	{
		"path": "/prod/input/sister_sku/USAP_SISTER_SKU_20161111.txt.gz",
		"endpoint": "sftp"
	},
    "hiveConfig": {
        "bucketSortKey": "product_id",
        "bucketCount": 10
      },
	"destination": "clients/usAutoParts/input/SISTER_SKU/${{ID}}",
	"type": "txt",
	"columnCount": 5,
	"failOnColumnCountMismatch": true,
	"skipLines": 1,
	"compression": "gz",
	"nullFormat": "null",
	"delimiter": 
	{
		"field": "|",
		"escaped": "\\",
		"line": "\n"
	},
	

	"columns": 
	[
		{
			"name": "product_id",
			"position": 1,
			"type": "STRING"
		},

		{
			"name": "source_brand_name",
			"position": 2,
			"type": "STRING"
		},

		{
			"name": "destination_sku",
			"position": 3,
			"type": "STRING"
		},

		{
			"name": "destination_product_id",
			"position": 4,
			"type": "STRING"
		},

		{
			"name": "relationship_type",
			"position": 5,
			"type": "STRING"
		}
	],

	"whereClause": null
}