{
	"id": "usAutoParts_MARKUP",
	"source": 
	{
		"path": "/prod/input/markup/USAP_MARKUP_20161111.txt.gz",
		"endpoint": "sftp"
	},
    "hiveConfig": {
        "bucketSortKey": "bucket_from",
        "bucketCount": 10
      },
	"destination": "clients/usAutoParts/input/MARKUP/${{ID}}",
	"type": "txt",
	"columnCount": 3,
	"failOnColumnCountMismatch": true,
	"skipLines": 1,
	"compression": "gz",
	"nullFormat": "null",
	"delimiter": 
	{
		"field": "|",
		"escaped": "\\",
		"line": "\n"
	},

	"columns": 
	[
		{
			"name": "bucket_from",
			"position": 1,
			"type": "STRING"
		},
		

		{
			"name": "bucket_to",
			"position": 2,
			"type": "STRING"
		},

		{
			"name": "mark_up",
			"position": 3,
			"type": "STRING"
		}
	],

	"whereClause": null
}