{
	"id": "usAutoParts_JCW",
	"source": 
	{
		"path": "s3://etl-backup-all-clients/us-auto-parts/product_views/ProductFamily_JCW_20161107_modified.csv",
		"endpoint": "s3"
	},

	"destination": "clients/usAutoParts/input/JCW/${{ID}}",
	"type": "csv",
	"columnCount": 8,
	"failOnColumnCountMismatch": true,
	"skipLines": 1,
	"compression": null,
	"nullFormat": "null",
	"delimiter": 
	{
		"field": ",",
		"escaped": "\\",
		"enclosed": "\"",
		"line": "\n"
	},

	"columns": 
	[
		{
			"name": "Date_1",
			"position": 1,
			"type": "STRING"
		},

		{
			"name": "Pages",
			"position": 2,
			"type": "STRING"
		},

		{
			"name": "Product_Views",
			"position": 3,
			"type": "STRING"
		},

		{
			"name": "Unique_Visitors",
			"position": 4,
			"type": "STRING"
		},

		{
			"name": "Cart_Additions",
			"position": 5,
			"type": "STRING"
		},
		{
			"name": "WebSite",
			"position": 6,
			"type": "STRING"
		},
		{
			"name": "ChannelName",
			"position": 7,
			"type": "STRING"
		},
		{
			"name": "URL",
			"position": 8,
			"type": "STRING"
		}
	],

	"whereClause": "Pages is not null and coalesce(Pages,'NULL') != ''"
}