{
  "id": "boomerang_catalog",
  "source": {
    "path": "base.boomerang_catalog",
    "endpoint": "redshift_source_1",
    "args": {
       "whereCriteria": "feed_date = (case when ${{bc_fallback_base_catalog_table_value}} then (select max(feed_date) from base.boomerang_catalog) else current_date end)"
    }
  },
  "destination": "feed/${{ID}}",
  "type": "CSV",
  "columnCount": 38,
  "failOnColumnCountMismatch": "true",
  "skipLines": 0,
  "compression": "",
  "nullFormat": "null",
  "delimiter": {
    "field": "\t",
    "escaped": "\u0003",
    "line": "\n",
    "enclosed": "\b"
  },
  "columns": [
    {
      "name": "sku",
      "position": 1,
      "type": "STRING"
    },
    {
    	"name": "channel_id",
	"position": 2,
	"type": "INT"
    },
    {
      "name": "title",
      "position": 3,
      "type": "STRING"
    },
    {
      "name": "product_url",
      "position": 4,
      "type": "STRING"
    },
    {
      "name": "image_url",
      "position": 5,
      "type": "STRING"
    },
    {
      "name": "description",
      "position": 6,
      "type": "STRING"
    },
    {
      "name": "brand",
      "position": 7,
      "type": "STRING"
    },
    {
      "name": "upc",
      "position": 8,
      "type": "STRING"
    },
    {
      "name": "ean",
      "position": 9,
      "type": "STRING"
    },
    {
      "name": "isbn",
      "position": 10,
      "type": "STRING"
    },
    {
      "name": "manufacturer",
      "position": 11,
      "type": "STRING"
    },
    {
      "name": "mpn",
      "position": 12,
      "type": "STRING"
    },
    {
      "name": "line",
      "position": 13,
      "type": "STRING"
    },
    {
      "name": "is_marketplace",
      "position": 14,
      "type": "INT"
    },
    {
      "name": "is_privatelabel",
      "position": 15,
      "type": "INT"
    },
    {
      "name": "gl_l1_id",
      "position": 16,
      "type": "STRING"
    },
    {
      "name": "gl_l1_name",
      "position": 17,
      "type": "STRING"
    },
    {
      "name": "gl_l2_id",
      "position": 18,
      "type": "STRING"
    },
    {
      "name": "gl_l2_name",
      "position": 19,
      "type": "STRING"
    },
    {
      "name": "gl_l3_id",
      "position": 20,
      "type": "STRING"
    },
    {
      "name": "gl_l3_name",
      "position": 21,
      "type": "STRING"
    },
    {
      "name": "gl_l4_id",
      "position": 22,
      "type": "STRING"
    },
    {
      "name": "gl_l4_name",
      "position": 23,
      "type": "STRING"
    },
    {
      "name": "gl_l5_id",
      "position": 24,
      "type": "STRING"
    },
    {
      "name": "gl_l5_name",
      "position": 25,
      "type": "STRING"
    },
    {
      "name": "merch_l1_id",
      "position": 26,
      "type": "STRING"
    },
    {
      "name": "merch_l1_name",
      "position": 27,
      "type": "STRING"
    },
    {
      "name": "merch_l2_id",
      "position": 28,
      "type": "STRING"
    },
    {
      "name": "merch_l2_name",
      "position": 29,
      "type": "STRING"
    },
    {
      "name": "merch_l3_id",
      "position": 30,
      "type": "STRING"
    },
    {
      "name": "merch_l3_name",
      "position": 31,
      "type": "STRING"
    },
    {
      "name": "merch_l4_id",
      "position": 32,
      "type": "STRING"
    },
    {
      "name": "merch_l4_name",
      "position": 33,
      "type": "STRING"
    },
    {
      "name": "merch_l5_id",
      "position": 34,
      "type": "STRING"
    },
    {
      "name": "merch_l5_name",
      "position": 35,
      "type": "STRING"
    },
    {
      "name": "browse_taxonomy",
      "position": 36,
      "type": "STRING"
    },
    {
      "name": "feed_date",
      "position": 37,
      "type": "TIMESTAMP"
    },
    {
      "name": "creation_date",
      "position": 38,
      "type": "TIMESTAMP"
    }
  ],
  "whereClause": null
}
