{
  "id": "pricing_adjusted_cm",
  "source": {
    "path": "cm.pricing_adjusted_cm",
    "endpoint": "redshift_source_1",
    "args": {
       "whereCriteria": "pricing_adjusted_cm.feed_date = (case when ${{bc_fallback_cm_pricing_adjusted_cm_table_value}} then (select max(feed_date) from cm.pricing_adjusted_cm) else current_date end) and pricing_adjusted_cm.matching_approval_status = \\'APPROVED\\' and date(comp_scrape_date) > current_date - 7"
    }
  },
  "destination": "feed/${{ID}}",
  "type": "CSV",
  "columnCount": 30,
  "failOnColumnCountMismatch": "true",
  "skipLines": 0,
  "compression": "",
  "nullFormat": "null",
  "delimiter": {
    "field": "\t",
    "escaped": "\u0003",
    "line": "\n",
    "enclosed": "\b"
  },
  "columns": [
    {
      "name": "client_sku",
      "position": 1,
      "type": "STRING"
    },
    {
      "name": "client_upc",
      "position": 2,
      "type": "STRING"
    },
    {
      "name": "client_title",
      "position": 3,
      "type": "STRING"
    },
    {
      "name": "client_model",
      "position": 4,
      "type": "STRING"
    },
    {
      "name": "client_brand",
      "position": 5,
      "type": "STRING"
    },
    {
      "name": "client_category",
      "position": 6,
      "type": "STRING"
    },
    {
      "name": "client_subcategory",
      "position": 7,
      "type": "STRING"
    },
    {
      "name": "client_price",
      "position": 8,
      "type": "DOUBLE"
    },
    {
      "name": "client_cost",
      "position": 9,
      "type": "DOUBLE"
    },
    {
      "name": "client_url",
      "position": 10,
      "type": "STRING"
    },
    {
      "name": "comp_sku",
      "position": 11,
      "type": "STRING"
    },
    {
      "name": "comp_name",
      "position": 12,
      "type": "STRING"
    },
    {
      "name": "comp_title",
      "position": 13,
      "type": "STRING"
    },
    {
      "name": "comp_model",
      "position": 14,
      "type": "STRING"
    },
    {
      "name": "comp_brand",
      "position": 15,
      "type": "STRING"
    },
    {
      "name": "comp_category",
      "position": 16,
      "type": "STRING"
    },
    {
      "name": "comp_offer_price",
      "position": 17,
      "type": "DOUBLE"
    },
    {
      "name": "comp_shipping_price",
      "position": 18,
      "type": "DOUBLE"
    },
    {
      "name": "comp_total_price",
      "position": 19,
      "type": "DOUBLE"
    },
    {
      "name": "comp_scrape_date",
      "position": 20,
      "type": "TIMESTAMP"
    },
    {
      "name": "comp_url",
      "position": 21,
      "type": "STRING"
    },
    {
      "name": "comp_pdt_rating",
      "position": 22,
      "type": "DOUBLE"
    },
    {
      "name": "comp_pdt_reviews",
      "position": 23,
      "type": "BIGINT"
    },
    {
      "name": "comp_status",
      "position": 24,
      "type": "STRING"
    },
    {
      "name": "comp_seller_name",
      "position": 25,
      "type": "STRING"
    },
    {
      "name": "comp_is_add_on",
      "position": 26,
      "type": "STRING"
    },
    {
      "name": "comp_in_stock",
      "position": 27,
      "type": "STRING"
    },
    {
      "name": "matching_approval_status",
      "position": 28,
      "type": "STRING"
    },
    {
      "name": "feed_date",
      "position": 29,
      "type": "TIMESTAMP"
    },
    {
      "name": "creation_date",
      "position": 30,
      "type": "TIMESTAMP"
    }
  ],
  "whereClause": null
}
